sim/z_core_control_u_tb.vcd
$date
	Sat Nov 29 21:02:08 2025
$end
$version
	Icarus Verilog
$end
$timescale
	1ns
$end
$scope module z_core_control_u_tb $end
$var wire 3 ! axil_arprot [2:0] $end
$var wire 3 " axil_awprot [2:0] $end
$var wire 2 # axil_bresp [1:0] $end
$var wire 2 $ axil_rresp [1:0] $end
$var wire 1 % axil_wvalid $end
$var wire 4 & axil_wstrb [3:0] $end
$var wire 1 ' axil_wready $end
$var wire 32 ( axil_wdata [31:0] $end
$var wire 1 ) axil_rvalid $end
$var wire 1 * axil_rready $end
$var wire 32 + axil_rdata [31:0] $end
$var wire 1 , axil_bvalid $end
$var wire 1 - axil_bready $end
$var wire 1 . axil_awvalid $end
$var wire 1 / axil_awready $end
$var wire 32 0 axil_awaddr [31:0] $end
$var wire 1 1 axil_arvalid $end
$var wire 1 2 axil_arready $end
$var wire 32 3 axil_araddr [31:0] $end
$var parameter 32 4 ADDR_WIDTH $end
$var parameter 32 5 DATA_WIDTH $end
$var parameter 32 6 STRB_WIDTH $end
$var reg 1 7 clk $end
$var reg 6 8 current_state [5:0] $end
$var reg 1 9 rstn $end
$var integer 32 : fail_count [31:0] $end
$var integer 32 ; pass_count [31:0] $end
$var integer 32 < test_count [31:0] $end
$scope module u_axil_ram $end
$var wire 1 7 clk $end
$var wire 1 9 rstn $end
$var wire 16 = s_axil_araddr [15:0] $end
$var wire 3 > s_axil_arprot [2:0] $end
$var wire 1 2 s_axil_arready $end
$var wire 16 ? s_axil_awaddr [15:0] $end
$var wire 3 @ s_axil_awprot [2:0] $end
$var wire 1 / s_axil_awready $end
$var wire 2 A s_axil_bresp [1:0] $end
$var wire 1 , s_axil_bvalid $end
$var wire 32 B s_axil_rdata [31:0] $end
$var wire 2 C s_axil_rresp [1:0] $end
$var wire 1 ) s_axil_rvalid $end
$var wire 1 ' s_axil_wready $end
$var wire 1 % s_axil_wvalid $end
$var wire 4 D s_axil_wstrb [3:0] $end
$var wire 32 E s_axil_wdata [31:0] $end
$var wire 1 * s_axil_rready $end
$var wire 1 - s_axil_bready $end
$var wire 1 . s_axil_awvalid $end
$var wire 14 F s_axil_awaddr_valid [13:0] $end
$var wire 1 1 s_axil_arvalid $end
$var wire 14 G s_axil_araddr_valid [13:0] $end
$var parameter 32 H ADDR_WIDTH $end
$var parameter 32 I DATA_WIDTH $end
$var parameter 32 J PIPELINE_OUTPUT $end
$var parameter 32 K STRB_WIDTH $end
$var parameter 33 L VALID_ADDR_WIDTH $end
$var parameter 32 M WORD_SIZE $end
$var parameter 32 N WORD_WIDTH $end
$var reg 1 O mem_rd_en $end
$var reg 1 P mem_wr_en $end
$var reg 1 Q s_axil_arready_next $end
$var reg 1 R s_axil_arready_reg $end
$var reg 1 S s_axil_awready_next $end
$var reg 1 T s_axil_awready_reg $end
$var reg 1 U s_axil_bvalid_next $end
$var reg 1 V s_axil_bvalid_reg $end
$var reg 32 W s_axil_rdata_pipe_reg [31:0] $end
$var reg 32 X s_axil_rdata_reg [31:0] $end
$var reg 1 Y s_axil_rvalid_next $end
$var reg 1 Z s_axil_rvalid_pipe_reg $end
$var reg 1 [ s_axil_rvalid_reg $end
$var reg 1 \ s_axil_wready_next $end
$var reg 1 ] s_axil_wready_reg $end
$var integer 32 ^ i [31:0] $end
$var integer 32 _ j [31:0] $end
$upscope $end
$scope module uut $end
$var wire 1 7 clk $end
$var wire 1 ` isIimm $end
$var wire 1 a isStore $end
$var wire 1 b isUimm $end
$var wire 1 c isWB $end
$var wire 3 d m_axil_arprot [2:0] $end
$var wire 1 2 m_axil_arready $end
$var wire 3 e m_axil_awprot [2:0] $end
$var wire 1 / m_axil_awready $end
$var wire 2 f m_axil_bresp [1:0] $end
$var wire 1 , m_axil_bvalid $end
$var wire 32 g m_axil_rdata [31:0] $end
$var wire 2 h m_axil_rresp [1:0] $end
$var wire 1 ) m_axil_rvalid $end
$var wire 1 ' m_axil_wready $end
$var wire 1 9 rstn $end
$var wire 1 i write_enable $end
$var wire 32 j rs2_out [31:0] $end
$var wire 5 k rs2 [4:0] $end
$var wire 32 l rs1_out [31:0] $end
$var wire 5 m rs1 [4:0] $end
$var wire 32 n rd_in_mux [31:0] $end
$var wire 5 o rd [4:0] $end
$var wire 7 p op [6:0] $end
$var wire 1 q mem_ready $end
$var wire 32 r mem_rdata [31:0] $end
$var wire 1 s mem_busy $end
$var wire 1 % m_axil_wvalid $end
$var wire 4 t m_axil_wstrb [3:0] $end
$var wire 32 u m_axil_wdata [31:0] $end
$var wire 1 * m_axil_rready $end
$var wire 1 - m_axil_bready $end
$var wire 1 . m_axil_awvalid $end
$var wire 32 v m_axil_awaddr [31:0] $end
$var wire 1 1 m_axil_arvalid $end
$var wire 32 w m_axil_araddr [31:0] $end
$var wire 1 x isSimm $end
$var wire 1 y isLoad $end
$var wire 1 z isLUI $end
$var wire 1 { isJALR $end
$var wire 1 | isJAL $end
$var wire 1 } isBimm $end
$var wire 1 ~ isAUIPC $end
$var wire 7 !" funct7 [6:0] $end
$var wire 3 "" funct3 [2:0] $end
$var wire 32 #" alu_out [31:0] $end
$var wire 4 $" alu_inst_type [3:0] $end
$var wire 32 %" alu_in2_mux [31:0] $end
$var wire 1 &" alu_branch $end
$var wire 32 '" Uimm [31:0] $end
$var wire 32 (" Simm [31:0] $end
$var wire 32 )" PC_saved_plus_Imm [31:0] $end
$var wire 32 *" PC_saved_plus4 [31:0] $end
$var wire 32 +" PC_plus_Imm [31:0] $end
$var wire 32 ," PC_plus4 [31:0] $end
$var wire 32 -" PC_mux [31:0] $end
$var wire 32 ." Jimm [31:0] $end
$var wire 32 /" Imm_mux_out [31:0] $end
$var wire 32 0" Iimm [31:0] $end
$var wire 32 1" Bimm [31:0] $end
$var parameter 32 2" ADDR_WIDTH $end
$var parameter 7 3" AUIPC_INST $end
$var parameter 7 4" B_INST $end
$var parameter 32 5" DATA_WIDTH $end
$var parameter 7 6" I_INST $end
$var parameter 7 7" I_LOAD_INST $end
$var parameter 7 8" JALR_INST $end
$var parameter 7 9" JAL_INST $end
$var parameter 7 :" LUI_INST $end
$var parameter 32 ;" N_STATES $end
$var parameter 32 <" PC_INIT $end
$var parameter 7 =" R_INST $end
$var parameter 34 >" STATE_DECODE $end
$var parameter 32 ?" STATE_DECODE_b $end
$var parameter 35 @" STATE_EXECUTE $end
$var parameter 32 A" STATE_EXECUTE_b $end
$var parameter 32 B" STATE_FETCH $end
$var parameter 33 C" STATE_FETCH_WAIT $end
$var parameter 32 D" STATE_FETCH_WAIT_b $end
$var parameter 32 E" STATE_FETCH_b $end
$var parameter 36 F" STATE_MEM $end
$var parameter 32 G" STATE_MEM_b $end
$var parameter 37 H" STATE_WRITE $end
$var parameter 32 I" STATE_WRITE_b $end
$var parameter 32 J" STRB_WIDTH $end
$var parameter 7 K" S_INST $end
$var reg 32 L" ALUOut_r [31:0] $end
$var reg 32 M" IR [31:0] $end
$var reg 32 N" Imm_r [31:0] $end
$var reg 32 O" MDR [31:0] $end
$var reg 32 P" PC [31:0] $end
$var reg 32 Q" PC_saved [31:0] $end
$var reg 1 R" alu_branch_r $end
$var reg 32 S" alu_in1_r [31:0] $end
$var reg 32 T" alu_in2_r [31:0] $end
$var reg 4 U" alu_inst_type_r [3:0] $end
$var reg 32 V" mem_addr [31:0] $end
$var reg 32 W" mem_data_out_r [31:0] $end
$var reg 1 X" mem_req $end
$var reg 1 Y" mem_wen $end
$var reg 6 Z" state [5:0] $end
$scope module alu $end
$var wire 32 [" alu_in1 [31:0] $end
$var wire 32 \" alu_in2 [31:0] $end
$var wire 4 ]" alu_inst_type [3:0] $end
$var parameter 5 ^" INST_ADD $end
$var parameter 5 _" INST_AND $end
$var parameter 5 `" INST_BEQ $end
$var parameter 5 a" INST_BGE $end
$var parameter 5 b" INST_BGEU $end
$var parameter 5 c" INST_BLT $end
$var parameter 5 d" INST_BLTU $end
$var parameter 5 e" INST_BNE $end
$var parameter 5 f" INST_OR $end
$var parameter 5 g" INST_SLL $end
$var parameter 5 h" INST_SLT $end
$var parameter 5 i" INST_SLTU $end
$var parameter 5 j" INST_SRA $end
$var parameter 5 k" INST_SRL $end
$var parameter 5 l" INST_SUB $end
$var parameter 5 m" INST_XOR $end
$var reg 1 &" alu_branch $end
$var reg 32 n" alu_out [31:0] $end
$upscope $end
$scope module alu_ctrl $end
$var wire 7 o" alu_op [6:0] $end
$var wire 7 p" alu_funct7 [6:0] $end
$var wire 3 q" alu_funct3 [2:0] $end
$var parameter 7 r" AUIPC_INST $end
$var parameter 7 s" B_INST $end
$var parameter 3 t" F3_ADD_SUB_LB_JALR_SB_BEQ $end
$var parameter 3 u" F3_AND_BGEU $end
$var parameter 3 v" F3_OR_BLTU $end
$var parameter 3 w" F3_SLL_LH_SH_BNE $end
$var parameter 3 x" F3_SLTU $end
$var parameter 3 y" F3_SLT_LW_SW $end
$var parameter 3 z" F3_SRL_SRA_LHU_BGE $end
$var parameter 3 {" F3_XOR_LBU_BLT $end
$var parameter 5 |" INST_ADD $end
$var parameter 5 }" INST_AND $end
$var parameter 5 ~" INST_BEQ $end
$var parameter 5 !# INST_BGE $end
$var parameter 5 "# INST_BGEU $end
$var parameter 5 ## INST_BLT $end
$var parameter 5 $# INST_BLTU $end
$var parameter 5 %# INST_BNE $end
$var parameter 5 &# INST_OR $end
$var parameter 5 '# INST_SLL $end
$var parameter 5 (# INST_SLT $end
$var parameter 5 )# INST_SLTU $end
$var parameter 5 *# INST_SRA $end
$var parameter 5 +# INST_SRL $end
$var parameter 5 ,# INST_SUB $end
$var parameter 5 -# INST_XOR $end
$var parameter 7 .# I_INST $end
$var parameter 7 /# I_LOAD_INST $end
$var parameter 7 0# JALR_INST $end
$var parameter 7 1# JAL_INST $end
$var parameter 7 2# LUI_INST $end
$var parameter 7 3# R_INST $end
$var parameter 7 4# S_INST $end
$var reg 4 5# alu_inst_type [3:0] $end
$upscope $end
$scope module decoder $end
$var wire 32 6# inst [31:0] $end
$var wire 5 7# rs2 [4:0] $end
$var wire 5 8# rs1 [4:0] $end
$var wire 5 9# rd [4:0] $end
$var wire 7 :# op [6:0] $end
$var wire 7 ;# funct7 [6:0] $end
$var wire 3 <# funct3 [2:0] $end
$var wire 32 =# Uimm [31:0] $end
$var wire 32 ># Simm [31:0] $end
$var wire 32 ?# Jimm [31:0] $end
$var wire 32 @# Iimm [31:0] $end
$var wire 32 A# Bimm [31:0] $end
$upscope $end
$scope module reg_file $end
$var wire 1 7 clk $end
$var wire 5 B# rd [4:0] $end
$var wire 32 C# rd_in [31:0] $end
$var wire 1 D# reset $end
$var wire 5 E# rs1 [4:0] $end
$var wire 32 F# rs1_out [31:0] $end
$var wire 5 G# rs2 [4:0] $end
$var wire 1 i write_enable $end
$var wire 32 H# rs2_out [31:0] $end
$var reg 32 I# reg_r10_q [31:0] $end
$var reg 32 J# reg_r11_q [31:0] $end
$var reg 32 K# reg_r12_q [31:0] $end
$var reg 32 L# reg_r13_q [31:0] $end
$var reg 32 M# reg_r14_q [31:0] $end
$var reg 32 N# reg_r15_q [31:0] $end
$var reg 32 O# reg_r16_q [31:0] $end
$var reg 32 P# reg_r17_q [31:0] $end
$var reg 32 Q# reg_r18_q [31:0] $end
$var reg 32 R# reg_r19_q [31:0] $end
$var reg 32 S# reg_r1_q [31:0] $end
$var reg 32 T# reg_r20_q [31:0] $end
$var reg 32 U# reg_r21_q [31:0] $end
$var reg 32 V# reg_r22_q [31:0] $end
$var reg 32 W# reg_r23_q [31:0] $end
$var reg 32 X# reg_r24_q [31:0] $end
$var reg 32 Y# reg_r25_q [31:0] $end
$var reg 32 Z# reg_r26_q [31:0] $end
$var reg 32 [# reg_r27_q [31:0] $end
$var reg 32 \# reg_r28_q [31:0] $end
$var reg 32 ]# reg_r29_q [31:0] $end
$var reg 32 ^# reg_r2_q [31:0] $end
$var reg 32 _# reg_r30_q [31:0] $end
$var reg 32 `# reg_r31_q [31:0] $end
$var reg 32 a# reg_r3_q [31:0] $end
$var reg 32 b# reg_r4_q [31:0] $end
$var reg 32 c# reg_r5_q [31:0] $end
$var reg 32 d# reg_r6_q [31:0] $end
$var reg 32 e# reg_r7_q [31:0] $end
$var reg 32 f# reg_r8_q [31:0] $end
$var reg 32 g# reg_r9_q [31:0] $end
$var reg 32 h# rs1_reg [31:0] $end
$var reg 32 i# rs2_reg [31:0] $end
$upscope $end
$scope module u_axil_master $end
$var wire 1 7 clk $end
$var wire 3 j# m_axil_arprot [2:0] $end
$var wire 1 2 m_axil_arready $end
$var wire 3 k# m_axil_awprot [2:0] $end
$var wire 1 / m_axil_awready $end
$var wire 2 l# m_axil_bresp [1:0] $end
$var wire 1 , m_axil_bvalid $end
$var wire 32 m# m_axil_rdata [31:0] $end
$var wire 2 n# m_axil_rresp [1:0] $end
$var wire 1 ) m_axil_rvalid $end
$var wire 1 ' m_axil_wready $end
$var wire 32 o# mem_addr [31:0] $end
$var wire 1 X" mem_req $end
$var wire 32 p# mem_wdata [31:0] $end
$var wire 1 Y" mem_wen $end
$var wire 4 q# mem_wstrb [3:0] $end
$var wire 1 9 rstn $end
$var wire 1 s mem_busy $end
$var parameter 32 r# ADDR_WIDTH $end
$var parameter 32 s# DATA_WIDTH $end
$var parameter 3 t# STATE_IDLE $end
$var parameter 3 u# STATE_READ_ADDR $end
$var parameter 3 v# STATE_READ_DATA $end
$var parameter 3 w# STATE_WRITE_ADDR $end
$var parameter 3 x# STATE_WRITE_RESP $end
$var parameter 32 y# STRB_WIDTH $end
$var reg 32 z# addr_reg [31:0] $end
$var reg 32 {# m_axil_araddr [31:0] $end
$var reg 1 1 m_axil_arvalid $end
$var reg 32 |# m_axil_awaddr [31:0] $end
$var reg 1 . m_axil_awvalid $end
$var reg 1 - m_axil_bready $end
$var reg 1 * m_axil_rready $end
$var reg 32 }# m_axil_wdata [31:0] $end
$var reg 4 ~# m_axil_wstrb [3:0] $end
$var reg 1 % m_axil_wvalid $end
$var reg 32 !$ mem_rdata [31:0] $end
$var reg 1 q mem_ready $end
$var reg 3 "$ state [2:0] $end
$var reg 32 #$ wdata_reg [31:0] $end
$var reg 1 $$ wen_reg $end
$var reg 4 %$ wstrb_reg [3:0] $end
$upscope $end
$upscope $end
$scope task check_mem $end
$var reg 32 &$ actual [31:0] $end
$var reg 32 '$ addr [31:0] $end
$var reg 32 ($ expected [31:0] $end
$var reg 256 )$ test_name [255:0] $end
$upscope $end
$scope task check_reg $end
$var reg 32 *$ actual [31:0] $end
$var reg 32 +$ expected [31:0] $end
$var reg 5 ,$ reg_num [4:0] $end
$var reg 256 -$ test_name [255:0] $end
$upscope $end
$scope task load_test10_backward_branch $end
$var integer 32 .$ i [31:0] $end
$upscope $end
$scope task load_test1_arithmetic $end
$upscope $end
$scope task load_test2_logical $end
$upscope $end
$scope task load_test3_shifts $end
$upscope $end
$scope task load_test4_memory $end
$upscope $end
$scope task load_test5_compare $end
$upscope $end
$scope task load_test6_lui_auipc $end
$upscope $end
$scope task load_test7_full_program $end
$upscope $end
$scope task load_test8_branches $end
$upscope $end
$scope task load_test9_jumps $end
$upscope $end
$scope task reset_cpu $end
$upscope $end
$scope task wait_cycles $end
$var integer 32 /$ n [31:0] $end
$upscope $end
$upscope $end
$enddefinitions $end
$comment Show the parameter values. $end
$dumpall
b100 y#
b100 x#
b11 w#
b10 v#
b1 u#
b0 t#
b100000 s#
b100000 r#
b100011 4#
b110011 3#
b110111 2#
b1101111 1#
b1100111 0#
b11 /#
b10011 .#
b101 -#
b1 ,#
b110 +#
b111 *#
b100 )#
b11 (#
b10 '#
b1000 &#
b1011 %#
b1110 $#
b1100 ##
b1111 "#
b1101 !#
b1010 ~"
b1001 }"
b0 |"
b100 {"
b101 z"
b10 y"
b11 x"
b1 w"
b110 v"
b111 u"
b0 t"
b1100011 s"
b10111 r"
b101 m"
b1 l"
b110 k"
b111 j"
b100 i"
b11 h"
b10 g"
b1000 f"
b1011 e"
b1110 d"
b1100 c"
b1111 b"
b1101 a"
b1010 `"
b1001 _"
b0 ^"
b100011 K"
b100 J"
b101 I"
b100000 H"
b100 G"
b10000 F"
b0 E"
b1 D"
b10 C"
b1 B"
b11 A"
b1000 @"
b10 ?"
b100 >"
b110011 ="
b0 <"
b110 ;"
b110111 :"
b1101111 9"
b1100111 8"
b11 7"
b10011 6"
b100000 5"
b1100011 4"
b10111 3"
b100000 2"
b100 N
b1000 M
b1110 L
b100 K
b0 J
b100000 I
b10000 H
b100 6
b100000 5
b100000 4
$end
#0
$dumpvars
b100 /$
bx .$
bx -$
bx ,$
bx +$
bx *$
bx )$
bx ($
bx '$
bx &$
bx %$
x$$
bx #$
bx "$
bx !$
bx ~#
bx }#
bx |#
bx {#
bx z#
b1111 q#
bx p#
bx o#
b0 n#
b0 m#
b0 l#
b0 k#
b0 j#
bx i#
bx h#
bx g#
bx f#
bx e#
bx d#
bx c#
bx b#
bx a#
bx `#
bx _#
bx ^#
bx ]#
bx \#
bx [#
bx Z#
bx Y#
bx X#
bx W#
bx V#
bx U#
bx T#
bx S#
bx R#
bx Q#
bx P#
bx O#
bx N#
bx M#
bx L#
bx K#
bx J#
bx I#
bx H#
bx G#
bx F#
bx E#
1D#
bx C#
bx B#
bx0 A#
bx @#
bx0 ?#
bx >#
bx000000000000 =#
bx <#
bx ;#
bx :#
bx 9#
bx 8#
bx 7#
bx 6#
bx 5#
bx q"
bx p"
bx o"
bx n"
bx ]"
bx \"
bx ["
bx Z"
xY"
xX"
bx W"
bx V"
bx U"
bx T"
bx S"
xR"
bx Q"
bx P"
bx O"
bx N"
bx M"
bx L"
bx0 1"
bx 0"
bx /"
bx0 ."
bx -"
bx ,"
bx +"
bx *"
bx )"
bx ("
bx000000000000 '"
x&"
bx %"
bx $"
bx #"
bx ""
bx !"
x~
x}
x|
x{
xz
xy
xx
bx w
bx v
bx u
bx t
xs
bx r
xq
bx p
bx o
bx n
bx m
bx l
bx k
bx j
xi
b0 h
b0 g
b0 f
b0 e
b0 d
xc
xb
xa
x`
b100000000000000 _
b100000000000000 ^
0]
x\
0[
0Z
xY
b0 X
b0 W
0V
xU
0T
xS
0R
xQ
xP
xO
bx G
bx F
bx E
bx D
b0 C
b0 B
b0 A
b0 @
bx ?
b0 >
bx =
b0 <
b0 ;
b0 :
09
b0 8
07
bx 3
02
x1
bx 0
0/
x.
x-
0,
b0 +
x*
0)
bx (
0'
bx &
x%
b0 $
b0 #
b0 "
b0 !
$end
#5
b0 %"
b0 j
b0 H#
b0 i#
b0 l
b0 F#
b0 h#
b0 n
b0 C#
b0 F
b0 G
1c
b100 -"
0b
0`
b0 /"
b0 ?
b0 =
b0 #"
b0 n"
0y
0{
0|
0~
0z
0}
0a
0x
b0 p
b0 o"
b0 :#
b0 m
b0 8#
b0 E#
b0 k
b0 7#
b0 G#
b0 o
b0 9#
b0 B#
b0 ""
b0 q"
b0 <#
b0 !"
b0 p"
b0 ;#
b0 0"
b0 @#
b0 ("
b0 >#
b0 1"
b0 A#
b0 '"
b0 =#
b0 ."
b0 ?#
0i
0U
0\
0S
0P
0Y
0Q
0O
0$$
b0 %$
b0 #$
b0 z#
0q
b0 r
b0 !$
0-
0%
b0 &
b0 D
b0 t
b0 ~#
b0 (
b0 E
b0 u
b0 }#
0.
b0 0
b0 v
b0 |#
0*
01
b0 3
b0 w
b0 {#
0s
b0 "$
b0 `#
b0 _#
b0 ]#
b0 \#
b0 [#
b0 Z#
b0 Y#
b0 X#
b0 W#
b0 V#
b0 U#
b0 T#
b0 R#
b0 Q#
b0 P#
b0 O#
b0 N#
b0 M#
b0 L#
b0 K#
b0 J#
b0 I#
b0 g#
b0 f#
b0 e#
b0 d#
b0 c#
b0 b#
b0 a#
b0 ^#
b0 S#
b0 W"
b0 p#
b0 +"
b0 )"
b0 N"
b0 U"
b0 ]"
b0 T"
b0 \"
b0 S"
b0 ["
0R"
b0 L"
b100 *"
b0 Q"
b0 O"
b0 M"
b0 6#
b0 V"
b0 o#
0Y"
0X"
b100 ,"
b0 P"
b1 Z"
0,
0V
0'
0]
0/
0T
0)
0[
02
0R
bx 8
b100 ^
17
#10
07
#15
b1 8
b100 ^
17
#20
07
#25
b100 ^
17
#30
07
#35
0D#
b10 /$
19
b100 ^
17
#40
07
#45
b10 Z"
1X"
b100 ^
17
#50
07
#55
1O
1Y
1Q
b10 8
0X"
1s
b1 "$
11
b1111 %$
b100 ^
17
#60
07
#65
0Q
0O
b101000000000000100010011 +
b101000000000000100010011 B
b101000000000000100010011 g
b101000000000000100010011 m#
b101000000000000100010011 X
1)
1[
12
1R
b100 ^
17
#70
07
#75
0Y
1Z
b101000000000000100010011 W
02
0R
b10 "$
1*
01
b100 ^
17
#80
07
#85
0s
b0 "$
0*
1q
b101000000000000100010011 r
b101000000000000100010011 !$
0)
0[
b100 ^
17
#90
07
#95
b1010 /"
b1010 %"
1`
b0 $"
b0 5#
b10011 p
b10011 o"
b10011 :#
b1010 k
b1010 7#
b1010 G#
b10 o
b10 9#
b10 B#
b1010 0"
b1010 @#
b10 ("
b10 >#
b10 1"
b10 A#
b101000000000000000000000 '"
b101000000000000000000000 =#
b1010 ."
b1010 ?#
b100 Z"
b101000000000000100010011 M"
b101000000000000100010011 6#
0q
b100 ^
17
#100
07
#105
b1010 #"
b1010 n"
b1000 Z"
b1010 +"
b1010 )"
b1010 N"
b1010 T"
b1010 \"
b100 8
b100 ^
17
#110
07
#115
b1010 n
b1010 C#
b1000 -"
1i
b1000 8
b100000 Z"
xR"
b1010 L"
b1000 ,"
b1110 +"
b100 P"
b100 ^
17
#120
07
#125
0i
b1010 ^#
b1 Z"
b100000 8
b100 ^
17
#130
07
#135
b1 8
b10 Z"
1X"
b100 V"
b100 o#
b100 ^
17
#140
07
#145
b1 G
1O
1Y
1Q
b100 =
1s
b1 "$
11
b100 3
b100 w
b100 {#
b100 z#
0X"
b10 8
b100 ^
17
#150
07
#155
0Q
0O
b11100000000000110010011 +
b11100000000000110010011 B
b11100000000000110010011 g
b11100000000000110010011 m#
b11100000000000110010011 X
1)
1[
12
1R
b100 ^
17
#160
07
#165
0Y
b10 "$
1*
01
02
0R
b100 ^
17
#170
07
#175
b11100000000000110010011 W
0)
0[
0s
b0 "$
0*
1q
b11100000000000110010011 r
b11100000000000110010011 !$
b100 ^
17
#180
07
#185
b111 %"
b111 /"
b111 k
b111 7#
b111 G#
b11 o
b11 9#
b11 B#
b111 0"
b111 @#
b11 ("
b11 >#
b100000000010 1"
b100000000010 A#
b11100000000000000000000 '"
b11100000000000000000000 =#
b100000000110 ."
b100000000110 ?#
0q
b100 Z"
b11100000000000110010011 M"
b11100000000000110010011 6#
b100 ^
17
#190
07
#195
b111 #"
b111 n"
b100 8
b1000 Z"
b1011 +"
b111 N"
b111 T"
b111 \"
b1000 *"
b1011 )"
b100 Q"
b100 ^
17
#200
07
#205
b111 n
b111 C#
b1100 -"
1i
b100000 Z"
b111 L"
b1100 ,"
b1111 +"
b1000 P"
b1000 8
b100 ^
17
#210
07
#215
0i
b100000 8
b1 Z"
b111 a#
b100 ^
17
#220
07
#225
b10 Z"
1X"
b1000 V"
b1000 o#
b1 8
b100 ^
17
#230
07
#235
b10 G
1O
1Y
1Q
b1000 =
b10 8
0X"
1s
b1 "$
11
b1000 3
b1000 w
b1000 {#
b1000 z#
b100 ^
17
#240
07
#245
0Q
0O
b1100010000001000110011 +
b1100010000001000110011 B
b1100010000001000110011 g
b1100010000001000110011 m#
b1100010000001000110011 X
1)
1[
12
1R
b100 ^
17
#250
07
#255
0Y
02
0R
b10 "$
1*
01
b100 ^
17
#260
07
#265
0s
b0 "$
0*
1q
b1100010000001000110011 r
b1100010000001000110011 !$
b1100010000001000110011 W
0)
0[
b100 ^
17
#270
07
#275
b111 j
b111 H#
b111 i#
b1010 l
b1010 F#
b1010 h#
0`
b111 %"
b0 /"
b110011 p
b110011 o"
b110011 :#
b10 m
b10 8#
b10 E#
b11 k
b11 7#
b11 G#
b100 o
b100 9#
b100 B#
b11 0"
b11 @#
b100 ("
b100 >#
b100 1"
b100 A#
b1100010000000000000000 '"
b1100010000000000000000 =#
b10000100000000010 ."
b10000100000000010 ?#
b100 Z"
b1100010000001000110011 M"
b1100010000001000110011 6#
0q
b100 ^
17
#280
07
#285
b10001 #"
b10001 n"
b1000 Z"
b111 W"
b111 p#
b1000 +"
b0 N"
b1010 S"
b1010 ["
b1100 *"
b1000 )"
b1000 Q"
b100 8
b100 ^
17
#290
07
#295
b10001 n
b10001 C#
b10000 -"
1i
b1000 8
b100000 Z"
b10001 L"
b10000 ,"
b1100 +"
b1100 P"
b100 ^
17
#300
07
#305
0i
b10001 b#
b1 Z"
b100000 8
b100 ^
17
#310
07
#315
b1 8
b10 Z"
1X"
b1100 V"
b1100 o#
b100 ^
17
#320
07
#325
b11 G
1O
1Y
1Q
b1100 =
1s
b1 "$
11
b1100 3
b1100 w
b1100 {#
b111 #$
b1100 z#
0X"
b10 8
b100 ^
17
#330
07
#335
0Q
0O
b1000000001100010000001010110011 +
b1000000001100010000001010110011 B
b1000000001100010000001010110011 g
b1000000001100010000001010110011 m#
b1000000001100010000001010110011 X
1)
1[
12
1R
b100 ^
17
#340
07
#345
0Y
b10 "$
1*
01
02
0R
b100 ^
17
#350
07
#355
b1000000001100010000001010110011 W
0)
0[
0s
b0 "$
0*
1q
b1000000001100010000001010110011 r
b1000000001100010000001010110011 !$
b100 ^
17
#360
07
#365
b1 $"
b1 5#
b101 o
b101 9#
b101 B#
b100000 !"
b100000 p"
b100000 ;#
b10000000011 0"
b10000000011 @#
b10000000101 ("
b10000000101 >#
b110000000100 1"
b110000000100 A#
b1000000001100010000000000000000 '"
b1000000001100010000000000000000 =#
b10000110000000010 ."
b10000110000000010 ?#
0q
b100 Z"
b1000000001100010000001010110011 M"
b1000000001100010000001010110011 6#
b100 ^
17
#370
07
#375
b11 #"
b11 n"
b100 8
b1000 Z"
b1 U"
b1 ]"
b10000 *"
b1100 )"
b1100 Q"
b100 ^
17
#380
07
#385
b11 n
b11 C#
b10100 -"
1i
b100000 Z"
b11 L"
b10100 ,"
b10000 +"
b10000 P"
b1000 8
b100 ^
17
#390
07
#395
0i
b100000 8
b1 Z"
b11 c#
b100 ^
17
#400
07
#405
b10 Z"
1X"
b10000 V"
b10000 o#
b1 8
b100 ^
17
#410
07
#415
b100 G
1O
1Y
1Q
b10000 =
b10 8
0X"
1s
b1 "$
11
b10000 3
b10000 w
b10000 {#
b10000 z#
b100 ^
17
#420
07
#425
0Q
0O
b11111111101100000000001100010011 +
b11111111101100000000001100010011 B
b11111111101100000000001100010011 g
b11111111101100000000001100010011 m#
b11111111101100000000001100010011 X
1)
1[
12
1R
b100 ^
17
#430
07
#435
0Y
02
0R
b10 "$
1*
01
b100 ^
17
#440
07
#445
0s
b0 "$
0*
1q
b11111111101100000000001100010011 r
b11111111101100000000001100010011 !$
b11111111101100000000001100010011 W
0)
0[
b100 ^
17
#450
07
#455
b0 j
b0 H#
b0 i#
b0 l
b0 F#
b0 h#
b11111111111111111111111111111011 /"
b11111111111111111111111111111011 %"
1`
b0 $"
b0 5#
b10011 p
b10011 o"
b10011 :#
b0 m
b0 8#
b0 E#
b11011 k
b11011 7#
b11011 G#
b110 o
b110 9#
b110 B#
b1111111 !"
b1111111 p"
b1111111 ;#
b11111111111111111111111111111011 0"
b11111111111111111111111111111011 @#
b11111111111111111111111111100110 ("
b11111111111111111111111111100110 >#
b11111111111111111111011111100110 1"
b11111111111111111111011111100110 A#
b11111111101100000000000000000000 '"
b11111111101100000000000000000000 =#
b11111111111100000000111111111010 ."
b11111111111100000000111111111010 ?#
b100 Z"
b11111111101100000000001100010011 M"
b11111111101100000000001100010011 6#
0q
b100 ^
17
#460
07
#465
b11111111111111111111111111111011 #"
b11111111111111111111111111111011 n"
b1000 Z"
b0 W"
b0 p#
b1011 +"
b11111111111111111111111111111011 N"
b0 U"
b0 ]"
b11111111111111111111111111111011 T"
b11111111111111111111111111111011 \"
b0 S"
b0 ["
b10100 *"
b1011 )"
b10000 Q"
b100 8
b100 ^
17
#470
07
#475
b11111111111111111111111111111011 n
b11111111111111111111111111111011 C#
b11000 -"
1i
b1000 8
b100000 Z"
b11111111111111111111111111111011 L"
b11000 ,"
b1111 +"
b10100 P"
b100 ^
17
#480
07
#485
0i
b11111111111111111111111111111011 d#
b1 Z"
b100000 8
b100 ^
17
#490
07
#495
b1 8
b10 Z"
1X"
b10100 V"
b10100 o#
b100 ^
17
#500
07
#505
b101 G
1O
1Y
1Q
b10100 =
1s
b1 "$
11
b10100 3
b10100 w
b10100 {#
b0 #$
b10100 z#
0X"
b10 8
b100 ^
17
#510
07
#515
0Q
0O
b11000100000001110110011 +
b11000100000001110110011 B
b11000100000001110110011 g
b11000100000001110110011 m#
b11000100000001110110011 X
1)
1[
12
1R
b100 ^
17
#520
07
#525
0Y
b10 "$
1*
01
02
0R
b100 ^
17
#530
07
#535
b11000100000001110110011 W
0)
0[
0s
b0 "$
0*
1q
b11000100000001110110011 r
b11000100000001110110011 !$
b100 ^
17
#540
07
