sim/z_core_control_u_tb.vcd
$date
	Sat Nov 29 20:20:37 2025
$end
$version
	Icarus Verilog
$end
$timescale
	1ps
$end
$scope module z_core_control_u_tb $end
$var wire 3 ! axil_arprot [2:0] $end
$var wire 3 " axil_awprot [2:0] $end
$var wire 2 # axil_bresp [1:0] $end
$var wire 2 $ axil_rresp [1:0] $end
$var wire 1 % axil_wvalid $end
$var wire 4 & axil_wstrb [3:0] $end
$var wire 1 ' axil_wready $end
$var wire 32 ( axil_wdata [31:0] $end
$var wire 1 ) axil_rvalid $end
$var wire 1 * axil_rready $end
$var wire 32 + axil_rdata [31:0] $end
$var wire 1 , axil_bvalid $end
$var wire 1 - axil_bready $end
$var wire 1 . axil_awvalid $end
$var wire 1 / axil_awready $end
$var wire 32 0 axil_awaddr [31:0] $end
$var wire 1 1 axil_arvalid $end
$var wire 1 2 axil_arready $end
$var wire 32 3 axil_araddr [31:0] $end
$var parameter 32 4 ADDR_WIDTH $end
$var parameter 32 5 DATA_WIDTH $end
$var parameter 32 6 STRB_WIDTH $end
$var reg 1 7 clk $end
$var reg 1 8 rstn $end
$var integer 32 9 fail_count [31:0] $end
$var integer 32 : pass_count [31:0] $end
$var integer 32 ; test_count [31:0] $end
$scope module u_axil_ram $end
$var wire 1 7 clk $end
$var wire 1 8 rstn $end
$var wire 16 < s_axil_araddr [15:0] $end
$var wire 3 = s_axil_arprot [2:0] $end
$var wire 1 2 s_axil_arready $end
$var wire 16 > s_axil_awaddr [15:0] $end
$var wire 3 ? s_axil_awprot [2:0] $end
$var wire 1 / s_axil_awready $end
$var wire 2 @ s_axil_bresp [1:0] $end
$var wire 1 , s_axil_bvalid $end
$var wire 32 A s_axil_rdata [31:0] $end
$var wire 2 B s_axil_rresp [1:0] $end
$var wire 1 ) s_axil_rvalid $end
$var wire 1 ' s_axil_wready $end
$var wire 1 % s_axil_wvalid $end
$var wire 4 C s_axil_wstrb [3:0] $end
$var wire 32 D s_axil_wdata [31:0] $end
$var wire 1 * s_axil_rready $end
$var wire 1 - s_axil_bready $end
$var wire 1 . s_axil_awvalid $end
$var wire 14 E s_axil_awaddr_valid [13:0] $end
$var wire 1 1 s_axil_arvalid $end
$var wire 14 F s_axil_araddr_valid [13:0] $end
$var parameter 32 G ADDR_WIDTH $end
$var parameter 32 H DATA_WIDTH $end
$var parameter 32 I PIPELINE_OUTPUT $end
$var parameter 32 J STRB_WIDTH $end
$var parameter 33 K VALID_ADDR_WIDTH $end
$var parameter 32 L WORD_SIZE $end
$var parameter 32 M WORD_WIDTH $end
$var reg 1 N mem_rd_en $end
$var reg 1 O mem_wr_en $end
$var reg 1 P s_axil_arready_next $end
$var reg 1 Q s_axil_arready_reg $end
$var reg 1 R s_axil_awready_next $end
$var reg 1 S s_axil_awready_reg $end
$var reg 1 T s_axil_bvalid_next $end
$var reg 1 U s_axil_bvalid_reg $end
$var reg 32 V s_axil_rdata_pipe_reg [31:0] $end
$var reg 32 W s_axil_rdata_reg [31:0] $end
$var reg 1 X s_axil_rvalid_next $end
$var reg 1 Y s_axil_rvalid_pipe_reg $end
$var reg 1 Z s_axil_rvalid_reg $end
$var reg 1 [ s_axil_wready_next $end
$var reg 1 \ s_axil_wready_reg $end
$var integer 32 ] i [31:0] $end
$var integer 32 ^ j [31:0] $end
$upscope $end
$scope module uut $end
$var wire 1 7 clk $end
$var wire 1 _ isIimm $end
$var wire 1 ` isStore $end
$var wire 1 a isUimm $end
$var wire 1 b isWB $end
$var wire 3 c m_axil_arprot [2:0] $end
$var wire 1 2 m_axil_arready $end
$var wire 3 d m_axil_awprot [2:0] $end
$var wire 1 / m_axil_awready $end
$var wire 2 e m_axil_bresp [1:0] $end
$var wire 1 , m_axil_bvalid $end
$var wire 32 f m_axil_rdata [31:0] $end
$var wire 2 g m_axil_rresp [1:0] $end
$var wire 1 ) m_axil_rvalid $end
$var wire 1 ' m_axil_wready $end
$var wire 1 8 rstn $end
$var wire 1 h write_enable $end
$var wire 32 i rs2_out [31:0] $end
$var wire 5 j rs2 [4:0] $end
$var wire 32 k rs1_out [31:0] $end
$var wire 5 l rs1 [4:0] $end
$var wire 32 m rd_in_mux [31:0] $end
$var wire 5 n rd [4:0] $end
$var wire 7 o op [6:0] $end
$var wire 1 p mem_ready $end
$var wire 32 q mem_rdata [31:0] $end
$var wire 1 r mem_busy $end
$var wire 1 % m_axil_wvalid $end
$var wire 4 s m_axil_wstrb [3:0] $end
$var wire 32 t m_axil_wdata [31:0] $end
$var wire 1 * m_axil_rready $end
$var wire 1 - m_axil_bready $end
$var wire 1 . m_axil_awvalid $end
$var wire 32 u m_axil_awaddr [31:0] $end
$var wire 1 1 m_axil_arvalid $end
$var wire 32 v m_axil_araddr [31:0] $end
$var wire 1 w isSimm $end
$var wire 1 x isLoad $end
$var wire 1 y isLUI $end
$var wire 1 z isJALR $end
$var wire 1 { isJAL $end
$var wire 1 | isBimm $end
$var wire 1 } isAUIPC $end
$var wire 7 ~ funct7 [6:0] $end
$var wire 3 !" funct3 [2:0] $end
$var wire 32 "" alu_out [31:0] $end
$var wire 4 #" alu_inst_type [3:0] $end
$var wire 32 $" alu_in2_mux [31:0] $end
$var wire 1 %" alu_branch $end
$var wire 32 &" Uimm [31:0] $end
$var wire 32 '" Simm [31:0] $end
$var wire 32 (" PC_saved_plus_Imm [31:0] $end
$var wire 32 )" PC_saved_plus4 [31:0] $end
$var wire 32 *" PC_plus_Imm [31:0] $end
$var wire 32 +" PC_plus4 [31:0] $end
$var wire 32 ," PC_mux [31:0] $end
$var wire 32 -" Jimm [31:0] $end
$var wire 32 ." Imm_mux_out [31:0] $end
$var wire 32 /" Iimm [31:0] $end
$var wire 32 0" Bimm [31:0] $end
$var parameter 32 1" ADDR_WIDTH $end
$var parameter 7 2" AUIPC_INST $end
$var parameter 7 3" B_INST $end
$var parameter 32 4" DATA_WIDTH $end
$var parameter 7 5" I_INST $end
$var parameter 7 6" I_LOAD_INST $end
$var parameter 7 7" JALR_INST $end
$var parameter 7 8" JAL_INST $end
$var parameter 7 9" LUI_INST $end
$var parameter 32 :" N_STATES $end
$var parameter 32 ;" PC_INIT $end
$var parameter 7 <" R_INST $end
$var parameter 34 =" STATE_DECODE $end
$var parameter 32 >" STATE_DECODE_b $end
$var parameter 35 ?" STATE_EXECUTE $end
$var parameter 32 @" STATE_EXECUTE_b $end
$var parameter 32 A" STATE_FETCH $end
$var parameter 33 B" STATE_FETCH_WAIT $end
$var parameter 32 C" STATE_FETCH_WAIT_b $end
$var parameter 32 D" STATE_FETCH_b $end
$var parameter 36 E" STATE_MEM $end
$var parameter 32 F" STATE_MEM_b $end
$var parameter 37 G" STATE_WRITE $end
$var parameter 32 H" STATE_WRITE_b $end
$var parameter 32 I" STRB_WIDTH $end
$var parameter 7 J" S_INST $end
$var reg 32 K" ALUOut_r [31:0] $end
$var reg 32 L" IR [31:0] $end
$var reg 32 M" Imm_r [31:0] $end
$var reg 32 N" MDR [31:0] $end
$var reg 32 O" PC [31:0] $end
$var reg 32 P" PC_saved [31:0] $end
$var reg 1 Q" alu_branch_r $end
$var reg 32 R" alu_in1_r [31:0] $end
$var reg 32 S" alu_in2_r [31:0] $end
$var reg 4 T" alu_inst_type_r [3:0] $end
$var reg 32 U" mem_addr [31:0] $end
$var reg 32 V" mem_data_out_r [31:0] $end
$var reg 1 W" mem_req $end
$var reg 1 X" mem_wen $end
$var reg 6 Y" state [5:0] $end
$scope module alu $end
$var wire 32 Z" alu_in1 [31:0] $end
$var wire 32 [" alu_in2 [31:0] $end
$var wire 4 \" alu_inst_type [3:0] $end
$var parameter 5 ]" INST_ADD $end
$var parameter 5 ^" INST_AND $end
$var parameter 5 _" INST_BEQ $end
$var parameter 5 `" INST_BGE $end
$var parameter 5 a" INST_BGEU $end
$var parameter 5 b" INST_BLT $end
$var parameter 5 c" INST_BLTU $end
$var parameter 5 d" INST_BNE $end
$var parameter 5 e" INST_OR $end
$var parameter 5 f" INST_SLL $end
$var parameter 5 g" INST_SLT $end
$var parameter 5 h" INST_SLTU $end
$var parameter 5 i" INST_SRA $end
$var parameter 5 j" INST_SRL $end
$var parameter 5 k" INST_SUB $end
$var parameter 5 l" INST_XOR $end
$var reg 1 %" alu_branch $end
$var reg 32 m" alu_out [31:0] $end
$upscope $end
$scope module alu_ctrl $end
$var wire 7 n" alu_op [6:0] $end
$var wire 7 o" alu_funct7 [6:0] $end
$var wire 3 p" alu_funct3 [2:0] $end
$var parameter 7 q" AUIPC_INST $end
$var parameter 7 r" B_INST $end
$var parameter 3 s" F3_ADD_SUB_LB_JALR_SB_BEQ $end
$var parameter 3 t" F3_AND_BGEU $end
$var parameter 3 u" F3_OR_BLTU $end
$var parameter 3 v" F3_SLL_LH_SH_BNE $end
$var parameter 3 w" F3_SLTU $end
$var parameter 3 x" F3_SLT_LW_SW $end
$var parameter 3 y" F3_SRL_SRA_LHU_BGE $end
$var parameter 3 z" F3_XOR_LBU_BLT $end
$var parameter 5 {" INST_ADD $end
$var parameter 5 |" INST_AND $end
$var parameter 5 }" INST_BEQ $end
$var parameter 5 ~" INST_BGE $end
$var parameter 5 !# INST_BGEU $end
$var parameter 5 "# INST_BLT $end
$var parameter 5 ## INST_BLTU $end
$var parameter 5 $# INST_BNE $end
$var parameter 5 %# INST_OR $end
$var parameter 5 &# INST_SLL $end
$var parameter 5 '# INST_SLT $end
$var parameter 5 (# INST_SLTU $end
$var parameter 5 )# INST_SRA $end
$var parameter 5 *# INST_SRL $end
$var parameter 5 +# INST_SUB $end
$var parameter 5 ,# INST_XOR $end
$var parameter 7 -# I_INST $end
$var parameter 7 .# I_LOAD_INST $end
$var parameter 7 /# JALR_INST $end
$var parameter 7 0# JAL_INST $end
$var parameter 7 1# LUI_INST $end
$var parameter 7 2# R_INST $end
$var parameter 7 3# S_INST $end
$var reg 4 4# alu_inst_type [3:0] $end
$upscope $end
$scope module decoder $end
$var wire 32 5# inst [31:0] $end
$var wire 5 6# rs2 [4:0] $end
$var wire 5 7# rs1 [4:0] $end
$var wire 5 8# rd [4:0] $end
$var wire 7 9# op [6:0] $end
$var wire 7 :# funct7 [6:0] $end
$var wire 3 ;# funct3 [2:0] $end
$var wire 32 <# Uimm [31:0] $end
$var wire 32 =# Simm [31:0] $end
$var wire 32 ># Jimm [31:0] $end
$var wire 32 ?# Iimm [31:0] $end
$var wire 32 @# Bimm [31:0] $end
$upscope $end
$scope module reg_file $end
$var wire 1 7 clk $end
$var wire 5 A# rd [4:0] $end
$var wire 32 B# rd_in [31:0] $end
$var wire 1 C# reset $end
$var wire 5 D# rs1 [4:0] $end
$var wire 32 E# rs1_out [31:0] $end
$var wire 5 F# rs2 [4:0] $end
$var wire 1 h write_enable $end
$var wire 32 G# rs2_out [31:0] $end
$var reg 32 H# reg_r10_q [31:0] $end
$var reg 32 I# reg_r11_q [31:0] $end
$var reg 32 J# reg_r12_q [31:0] $end
$var reg 32 K# reg_r13_q [31:0] $end
$var reg 32 L# reg_r14_q [31:0] $end
$var reg 32 M# reg_r15_q [31:0] $end
$var reg 32 N# reg_r16_q [31:0] $end
$var reg 32 O# reg_r17_q [31:0] $end
$var reg 32 P# reg_r18_q [31:0] $end
$var reg 32 Q# reg_r19_q [31:0] $end
$var reg 32 R# reg_r1_q [31:0] $end
$var reg 32 S# reg_r20_q [31:0] $end
$var reg 32 T# reg_r21_q [31:0] $end
$var reg 32 U# reg_r22_q [31:0] $end
$var reg 32 V# reg_r23_q [31:0] $end
$var reg 32 W# reg_r24_q [31:0] $end
$var reg 32 X# reg_r25_q [31:0] $end
$var reg 32 Y# reg_r26_q [31:0] $end
$var reg 32 Z# reg_r27_q [31:0] $end
$var reg 32 [# reg_r28_q [31:0] $end
$var reg 32 \# reg_r29_q [31:0] $end
$var reg 32 ]# reg_r2_q [31:0] $end
$var reg 32 ^# reg_r30_q [31:0] $end
$var reg 32 _# reg_r31_q [31:0] $end
$var reg 32 `# reg_r3_q [31:0] $end
$var reg 32 a# reg_r4_q [31:0] $end
$var reg 32 b# reg_r5_q [31:0] $end
$var reg 32 c# reg_r6_q [31:0] $end
$var reg 32 d# reg_r7_q [31:0] $end
$var reg 32 e# reg_r8_q [31:0] $end
$var reg 32 f# reg_r9_q [31:0] $end
$var reg 32 g# rs1_reg [31:0] $end
$var reg 32 h# rs2_reg [31:0] $end
$upscope $end
$scope module u_axil_master $end
$var wire 1 7 clk $end
$var wire 3 i# m_axil_arprot [2:0] $end
$var wire 1 2 m_axil_arready $end
$var wire 3 j# m_axil_awprot [2:0] $end
$var wire 1 / m_axil_awready $end
$var wire 2 k# m_axil_bresp [1:0] $end
$var wire 1 , m_axil_bvalid $end
$var wire 32 l# m_axil_rdata [31:0] $end
$var wire 2 m# m_axil_rresp [1:0] $end
$var wire 1 ) m_axil_rvalid $end
$var wire 1 ' m_axil_wready $end
$var wire 32 n# mem_addr [31:0] $end
$var wire 1 W" mem_req $end
$var wire 32 o# mem_wdata [31:0] $end
$var wire 1 X" mem_wen $end
$var wire 4 p# mem_wstrb [3:0] $end
$var wire 1 8 rstn $end
$var wire 1 r mem_busy $end
$var parameter 32 q# ADDR_WIDTH $end
$var parameter 32 r# DATA_WIDTH $end
$var parameter 3 s# STATE_IDLE $end
$var parameter 3 t# STATE_READ_ADDR $end
$var parameter 3 u# STATE_READ_DATA $end
$var parameter 3 v# STATE_WRITE_ADDR $end
$var parameter 3 w# STATE_WRITE_RESP $end
$var parameter 32 x# STRB_WIDTH $end
$var reg 32 y# addr_reg [31:0] $end
$var reg 32 z# m_axil_araddr [31:0] $end
$var reg 1 1 m_axil_arvalid $end
$var reg 32 {# m_axil_awaddr [31:0] $end
$var reg 1 . m_axil_awvalid $end
$var reg 1 - m_axil_bready $end
$var reg 1 * m_axil_rready $end
$var reg 32 |# m_axil_wdata [31:0] $end
$var reg 4 }# m_axil_wstrb [3:0] $end
$var reg 1 % m_axil_wvalid $end
$var reg 32 ~# mem_rdata [31:0] $end
$var reg 1 p mem_ready $end
$var reg 3 !$ state [2:0] $end
$var reg 32 "$ wdata_reg [31:0] $end
$var reg 1 #$ wen_reg $end
$var reg 4 $$ wstrb_reg [3:0] $end
$upscope $end
$upscope $end
$scope task check_mem $end
$var reg 32 %$ actual [31:0] $end
$var reg 32 &$ addr [31:0] $end
$var reg 32 '$ expected [31:0] $end
$var reg 256 ($ test_name [255:0] $end
$upscope $end
$scope task check_reg $end
$var reg 32 )$ actual [31:0] $end
$var reg 32 *$ expected [31:0] $end
$var reg 5 +$ reg_num [4:0] $end
$var reg 256 ,$ test_name [255:0] $end
$upscope $end
$scope task load_test10_backward_branch $end
$var integer 32 -$ i [31:0] $end
$upscope $end
$scope task load_test1_arithmetic $end
$upscope $end
$scope task load_test2_logical $end
$upscope $end
$scope task load_test3_shifts $end
$upscope $end
$scope task load_test4_memory $end
$upscope $end
$scope task load_test5_compare $end
$upscope $end
$scope task load_test6_lui_auipc $end
$upscope $end
$scope task load_test7_full_program $end
$upscope $end
$scope task load_test8_branches $end
$upscope $end
$scope task load_test9_jumps $end
$upscope $end
$scope task reset_cpu $end
$upscope $end
$scope task wait_cycles $end
$var integer 32 .$ n [31:0] $end
$upscope $end
$upscope $end
$enddefinitions $end
$comment Show the parameter values. $end
$dumpall
b100 x#
b100 w#
b11 v#
b10 u#
b1 t#
b0 s#
b100000 r#
b100000 q#
b100011 3#
b110011 2#
b110111 1#
b1101111 0#
b1100111 /#
b11 .#
b10011 -#
b101 ,#
b1 +#
b110 *#
b111 )#
b100 (#
b11 '#
b10 &#
b1000 %#
b1011 $#
b1110 ##
b1100 "#
b1111 !#
b1101 ~"
b1010 }"
b1001 |"
b0 {"
b100 z"
b101 y"
b10 x"
b11 w"
b1 v"
b110 u"
b111 t"
b0 s"
b1100011 r"
b10111 q"
b101 l"
b1 k"
b110 j"
b111 i"
b100 h"
b11 g"
b10 f"
b1000 e"
b1011 d"
b1110 c"
b1100 b"
b1111 a"
b1101 `"
b1010 _"
b1001 ^"
b0 ]"
b100011 J"
b100 I"
b101 H"
b100000 G"
b100 F"
b10000 E"
b0 D"
b1 C"
b10 B"
b1 A"
b11 @"
b1000 ?"
b10 >"
b100 ="
b110011 <"
b0 ;"
b110 :"
b110111 9"
b1101111 8"
b1100111 7"
b11 6"
b10011 5"
b100000 4"
b1100011 3"
b10111 2"
b100000 1"
b100 M
b1000 L
b1110 K
b100 J
b0 I
b100000 H
b10000 G
b100 6
b100000 5
b100000 4
$end
#0
$dumpvars
b100 .$
bx -$
bx ,$
bx +$
bx *$
bx )$
bx ($
bx '$
bx &$
bx %$
bx $$
x#$
bx "$
bx !$
bx ~#
bx }#
bx |#
bx {#
bx z#
bx y#
b1111 p#
bx o#
bx n#
b0 m#
b0 l#
b0 k#
b0 j#
b0 i#
bx h#
bx g#
bx f#
bx e#
bx d#
bx c#
bx b#
bx a#
bx `#
bx _#
bx ^#
bx ]#
bx \#
bx [#
bx Z#
bx Y#
bx X#
bx W#
bx V#
bx U#
bx T#
bx S#
bx R#
bx Q#
bx P#
bx O#
bx N#
bx M#
bx L#
bx K#
bx J#
bx I#
bx H#
bx G#
bx F#
bx E#
bx D#
1C#
bx B#
bx A#
bx0 @#
bx ?#
bx0 >#
bx =#
bx000000000000 <#
bx ;#
bx :#
bx 9#
bx 8#
bx 7#
bx 6#
bx 5#
bx 4#
bx p"
bx o"
bx n"
bx m"
bx \"
bx ["
bx Z"
bx Y"
xX"
xW"
bx V"
bx U"
bx T"
bx S"
bx R"
xQ"
bx P"
bx O"
bx N"
bx M"
bx L"
bx K"
bx0 0"
bx /"
bx ."
bx0 -"
bx ,"
bx +"
bx *"
bx )"
bx ("
bx '"
bx000000000000 &"
x%"
bx $"
bx #"
bx ""
bx !"
bx ~
x}
x|
x{
xz
xy
xx
xw
bx v
bx u
bx t
bx s
xr
bx q
xp
bx o
bx n
bx m
bx l
bx k
bx j
bx i
xh
b0 g
b0 f
b0 e
b0 d
b0 c
xb
xa
x`
x_
b100000000000000 ^
b100000000000000 ]
0\
x[
0Z
0Y
xX
b0 W
b0 V
0U
xT
0S
xR
0Q
xP
xO
xN
bx F
bx E
bx D
bx C
b0 B
b0 A
b0 @
b0 ?
bx >
b0 =
bx <
b0 ;
b0 :
b0 9
08
07
bx 3
02
x1
bx 0
0/
x.
x-
0,
b0 +
x*
0)
bx (
0'
bx &
x%
b0 $
b0 #
b0 "
b0 !
$end
#5000000000000
b0 $"
b0 i
b0 G#
b0 h#
b0 k
b0 E#
b0 g#
b0 m
b0 B#
b0 E
b0 F
1b
b100 ,"
0a
0_
b0 ."
b0 >
b0 <
b0 ""
b0 m"
0x
0z
0{
0}
0y
0|
0`
0w
b0 o
b0 n"
b0 9#
b0 l
b0 7#
b0 D#
b0 j
b0 6#
b0 F#
b0 n
b0 8#
b0 A#
b0 !"
b0 p"
b0 ;#
b0 ~
b0 o"
b0 :#
b0 /"
b0 ?#
b0 '"
b0 =#
b0 0"
b0 @#
b0 &"
b0 <#
b0 -"
b0 >#
0h
0T
0[
0R
0O
0X
0P
0N
0#$
b0 $$
b0 "$
b0 y#
0p
b0 q
b0 ~#
0-
0%
b0 &
b0 C
b0 s
b0 }#
b0 (
b0 D
b0 t
b0 |#
0.
b0 0
b0 u
b0 {#
0*
01
b0 3
b0 v
b0 z#
0r
b0 !$
b0 _#
b0 ^#
b0 \#
b0 [#
b0 Z#
b0 Y#
b0 X#
b0 W#
b0 V#
b0 U#
b0 T#
b0 S#
b0 Q#
b0 P#
b0 O#
b0 N#
b0 M#
b0 L#
b0 K#
b0 J#
b0 I#
b0 H#
b0 f#
b0 e#
b0 d#
b0 c#
b0 b#
b0 a#
b0 `#
b0 ]#
b0 R#
b0 V"
b0 o#
b0 *"
b0 ("
b0 M"
b0 T"
b0 \"
b0 S"
b0 ["
b0 R"
b0 Z"
0Q"
b0 K"
b100 )"
b0 P"
b0 N"
b0 L"
b0 5#
b0 U"
b0 n#
0X"
0W"
b100 +"
b0 O"
b1 Y"
0,
0U
0'
0\
0/
0S
0)
0Z
02
0Q
b100 ]
17
#10000000000000
07
#15000000000000
b100 ]
17
#20000000000000
07
#25000000000000
b100 ]
17
#30000000000000
07
#35000000000000
0C#
b10 .$
18
b100 ]
17
#40000000000000
07
#45000000000000
b10 Y"
1W"
b100 ]
17
#50000000000000
07
#55000000000000
1N
1X
1P
0W"
1r
b1 !$
11
b1111 $$
b100 ]
17
#60000000000000
07
#65000000000000
0P
0N
b101000000000000100010011 +
b101000000000000100010011 A
b101000000000000100010011 f
b101000000000000100010011 l#
b101000000000000100010011 W
1)
1Z
12
1Q
b100 ]
17
#70000000000000
07
#75000000000000
0X
1Y
b101000000000000100010011 V
02
0Q
b10 !$
1*
01
b100 ]
17
#80000000000000
07
#85000000000000
0r
b0 !$
0*
1p
b101000000000000100010011 q
b101000000000000100010011 ~#
0)
0Z
b100 ]
17
#90000000000000
07
#95000000000000
b1010 ."
b1010 $"
1_
b0 #"
b0 4#
b10011 o
b10011 n"
b10011 9#
b1010 j
b1010 6#
b1010 F#
b10 n
b10 8#
b10 A#
b1010 /"
b1010 ?#
b10 '"
b10 =#
b10 0"
b10 @#
b101000000000000000000000 &"
b101000000000000000000000 <#
b1010 -"
b1010 >#
b100 Y"
b101000000000000100010011 L"
b101000000000000100010011 5#
0p
b100 ]
17
#100000000000000
07
#105000000000000
b1010 ""
b1010 m"
b1000 Y"
b1010 *"
b1010 ("
b1010 M"
b1010 S"
b1010 ["
b100 ]
17
#110000000000000
07
#115000000000000
b1010 m
b1010 B#
b1000 ,"
1h
b100000 Y"
xQ"
b1010 K"
b1000 +"
b1110 *"
b100 O"
b100 ]
17
#120000000000000
07
#125000000000000
0h
b1010 ]#
b1 Y"
b100 ]
17
#130000000000000
07
#135000000000000
b10 Y"
1W"
b100 U"
b100 n#
b100 ]
17
#140000000000000
07
#145000000000000
b1 F
1N
1X
1P
b100 <
1r
b1 !$
11
b100 3
b100 v
b100 z#
b100 y#
0W"
b100 ]
17
#150000000000000
07
#155000000000000
0P
0N
b11100000000000110010011 +
b11100000000000110010011 A
b11100000000000110010011 f
b11100000000000110010011 l#
b11100000000000110010011 W
1)
1Z
12
1Q
b100 ]
17
#160000000000000
07
#165000000000000
0X
b10 !$
1*
01
02
0Q
b100 ]
17
#170000000000000
07
#175000000000000
b11100000000000110010011 V
0)
0Z
0r
b0 !$
0*
1p
b11100000000000110010011 q
b11100000000000110010011 ~#
b100 ]
17
#180000000000000
07
#185000000000000
b111 $"
b111 ."
b111 j
b111 6#
b111 F#
b11 n
b11 8#
b11 A#
b111 /"
b111 ?#
b11 '"
b11 =#
b100000000010 0"
b100000000010 @#
b11100000000000000000000 &"
b11100000000000000000000 <#
b100000000110 -"
b100000000110 >#
0p
b100 Y"
b11100000000000110010011 L"
b11100000000000110010011 5#
b100 ]
17
#190000000000000
07
#195000000000000
b111 ""
b111 m"
b1000 Y"
b1011 *"
b111 M"
b111 S"
b111 ["
b1000 )"
b1011 ("
b100 P"
b100 ]
17
#200000000000000
07
#205000000000000
b111 m
b111 B#
b1100 ,"
1h
b100000 Y"
b111 K"
b1100 +"
b1111 *"
b1000 O"
b100 ]
17
#210000000000000
07
#215000000000000
0h
b1 Y"
b111 `#
b100 ]
17
#220000000000000
07
#225000000000000
b10 Y"
1W"
b1000 U"
b1000 n#
b100 ]
17
#230000000000000
07
#235000000000000
b10 F
1N
1X
1P
b1000 <
0W"
1r
b1 !$
11
b1000 3
b1000 v
b1000 z#
b1000 y#
b100 ]
17
#240000000000000
07
#245000000000000
0P
0N
b1100010000001000110011 +
b1100010000001000110011 A
b1100010000001000110011 f
b1100010000001000110011 l#
b1100010000001000110011 W
1)
1Z
12
1Q
b100 ]
17
#250000000000000
07
#255000000000000
0X
02
0Q
b10 !$
1*
01
b100 ]
17
#260000000000000
07
#265000000000000
0r
b0 !$
0*
1p
b1100010000001000110011 q
b1100010000001000110011 ~#
b1100010000001000110011 V
0)
0Z
b100 ]
17
#270000000000000
07
#275000000000000
b111 i
b111 G#
b111 h#
b1010 k
b1010 E#
b1010 g#
0_
b111 $"
b0 ."
b110011 o
b110011 n"
b110011 9#
b10 l
b10 7#
b10 D#
b11 j
b11 6#
b11 F#
b100 n
b100 8#
b100 A#
b11 /"
b11 ?#
b100 '"
b100 =#
b100 0"
b100 @#
b1100010000000000000000 &"
b1100010000000000000000 <#
b10000100000000010 -"
b10000100000000010 >#
b100 Y"
b1100010000001000110011 L"
b1100010000001000110011 5#
0p
b100 ]
17
#280000000000000
07
#285000000000000
b10001 ""
b10001 m"
b1000 Y"
b111 V"
b111 o#
b1000 *"
b0 M"
b1010 R"
b1010 Z"
b1100 )"
b1000 ("
b1000 P"
b100 ]
17
#290000000000000
07
#295000000000000
b10001 m
b10001 B#
b10000 ,"
1h
b100000 Y"
b10001 K"
b10000 +"
b1100 *"
b1100 O"
b100 ]
17
#300000000000000
07
#305000000000000
0h
b10001 a#
b1 Y"
b100 ]
17
#310000000000000
07
#315000000000000
b10 Y"
1W"
b1100 U"
b1100 n#
b100 ]
17
#320000000000000
07
#325000000000000
b11 F
1N
1X
1P
b1100 <
1r
b1 !$
11
b1100 3
b1100 v
b1100 z#
b111 "$
b1100 y#
0W"
b100 ]
17
#330000000000000
07
#335000000000000
0P
0N
b1000000001100010000001010110011 +
b1000000001100010000001010110011 A
b1000000001100010000001010110011 f
b1000000001100010000001010110011 l#
b1000000001100010000001010110011 W
1)
1Z
12
1Q
b100 ]
17
#340000000000000
07
#345000000000000
0X
b10 !$
1*
01
02
0Q
b100 ]
17
#350000000000000
07
#355000000000000
b1000000001100010000001010110011 V
0)
0Z
0r
b0 !$
0*
1p
b1000000001100010000001010110011 q
b1000000001100010000001010110011 ~#
b100 ]
17
#360000000000000
07
#365000000000000
b1 #"
b1 4#
b101 n
b101 8#
b101 A#
b100000 ~
b100000 o"
b100000 :#
b10000000011 /"
b10000000011 ?#
b10000000101 '"
b10000000101 =#
b110000000100 0"
b110000000100 @#
b1000000001100010000000000000000 &"
b1000000001100010000000000000000 <#
b10000110000000010 -"
b10000110000000010 >#
0p
b100 Y"
b1000000001100010000001010110011 L"
b1000000001100010000001010110011 5#
b100 ]
17
#370000000000000
07
#375000000000000
b11 ""
b11 m"
b1000 Y"
b1 T"
b1 \"
b10000 )"
b1100 ("
b1100 P"
b100 ]
17
#380000000000000
07
#385000000000000
b11 m
b11 B#
b10100 ,"
1h
b100000 Y"
b11 K"
b10100 +"
b10000 *"
b10000 O"
b100 ]
17
#390000000000000
07
#395000000000000
0h
b1 Y"
b11 b#
b100 ]
17
#400000000000000
07
#405000000000000
b10 Y"
1W"
b10000 U"
b10000 n#
b100 ]
17
#410000000000000
07
#415000000000000
b100 F
1N
1X
1P
b10000 <
0W"
1r
b1 !$
11
b10000 3
b10000 v
b10000 z#
b10000 y#
b100 ]
17
#420000000000000
07
#425000000000000
0P
0N
b11111111101100000000001100010011 +
b11111111101100000000001100010011 A
b11111111101100000000001100010011 f
b11111111101100000000001100010011 l#
b11111111101100000000001100010011 W
1)
1Z
12
1Q
b100 ]
17
#430000000000000
07
#435000000000000
0X
02
0Q
b10 !$
1*
01
b100 ]
17
#440000000000000
07
#445000000000000
0r
b0 !$
0*
1p
b11111111101100000000001100010011 q
b11111111101100000000001100010011 ~#
b11111111101100000000001100010011 V
0)
0Z
b100 ]
17
#450000000000000
07
#455000000000000
b0 i
b0 G#
b0 h#
b0 k
b0 E#
b0 g#
b11111111111111111111111111111011 ."
b11111111111111111111111111111011 $"
1_
b0 #"
b0 4#
b10011 o
b10011 n"
b10011 9#
b0 l
b0 7#
b0 D#
b11011 j
b11011 6#
b11011 F#
b110 n
b110 8#
b110 A#
b1111111 ~
b1111111 o"
b1111111 :#
b11111111111111111111111111111011 /"
b11111111111111111111111111111011 ?#
b11111111111111111111111111100110 '"
b11111111111111111111111111100110 =#
b11111111111111111111011111100110 0"
b11111111111111111111011111100110 @#
b11111111101100000000000000000000 &"
b11111111101100000000000000000000 <#
b11111111111100000000111111111010 -"
b11111111111100000000111111111010 >#
b100 Y"
b11111111101100000000001100010011 L"
b11111111101100000000001100010011 5#
0p
b100 ]
17
#460000000000000
07
#465000000000000
b11111111111111111111111111111011 ""
b11111111111111111111111111111011 m"
b1000 Y"
b0 V"
b0 o#
b1011 *"
b11111111111111111111111111111011 M"
b0 T"
b0 \"
b11111111111111111111111111111011 S"
b11111111111111111111111111111011 ["
b0 R"
b0 Z"
b10100 )"
b1011 ("
b10000 P"
b100 ]
17
#470000000000000
07
#475000000000000
b11111111111111111111111111111011 m
b11111111111111111111111111111011 B#
b11000 ,"
1h
b100000 Y"
b11111111111111111111111111111011 K"
b11000 +"
b1111 *"
b10100 O"
b100 ]
17
#480000000000000
07
#485000000000000
0h
b11111111111111111111111111111011 c#
b1 Y"
b100 ]
17
#490000000000000
07
#495000000000000
b10 Y"
1W"
b10100 U"
b10100 n#
b100 ]
17
#500000000000000
07
#505000000000000
b101 F
1N
1X
1P
b10100 <
1r
b1 !$
11
b10100 3
b10100 v
b10100 z#
b0 "$
b10100 y#
0W"
b100 ]
17
#510000000000000
07
#515000000000000
0P
0N
b11000100000001110110011 +
b11000100000001110110011 A
b11000100000001110110011 f
b11000100000001110110011 l#
b11000100000001110110011 W
1)
1Z
12
1Q
b100 ]
17
#520000000000000
07
#525000000000000
0X
b10 !$
1*
01
02
0Q
b100 ]
17
#530000000000000
07
#535000000000000
b11000100000001110110011 V
0)
0Z
0r
b0 !$
0*
1p
b11000100000001110110011 q
b11000100000001110110011 ~#
b100 ]
17
#540000000000000
07
