sim/z_core_control_u_tb.vcd
$date
	Sat Nov 29 18:05:50 2025
$end
$version
	Icarus Verilog
$end
$timescale
	1ps
$end
$scope module z_core_control_u_tb $end
$var wire 3 ! axil_arprot [2:0] $end
$var wire 3 " axil_awprot [2:0] $end
$var wire 2 # axil_bresp [1:0] $end
$var wire 2 $ axil_rresp [1:0] $end
$var wire 1 % axil_wvalid $end
$var wire 4 & axil_wstrb [3:0] $end
$var wire 1 ' axil_wready $end
$var wire 32 ( axil_wdata [31:0] $end
$var wire 1 ) axil_rvalid $end
$var wire 1 * axil_rready $end
$var wire 32 + axil_rdata [31:0] $end
$var wire 1 , axil_bvalid $end
$var wire 1 - axil_bready $end
$var wire 1 . axil_awvalid $end
$var wire 1 / axil_awready $end
$var wire 32 0 axil_awaddr [31:0] $end
$var wire 1 1 axil_arvalid $end
$var wire 1 2 axil_arready $end
$var wire 32 3 axil_araddr [31:0] $end
$var parameter 32 4 ADDR_WIDTH $end
$var parameter 32 5 DATA_WIDTH $end
$var parameter 32 6 STRB_WIDTH $end
$var reg 1 7 clk $end
$var reg 6 8 prev_state [5:0] $end
$var reg 1 9 rstn $end
$scope module u_axil_ram $end
$var wire 1 7 clk $end
$var wire 1 9 rstn $end
$var wire 16 : s_axil_araddr [15:0] $end
$var wire 3 ; s_axil_arprot [2:0] $end
$var wire 1 2 s_axil_arready $end
$var wire 16 < s_axil_awaddr [15:0] $end
$var wire 3 = s_axil_awprot [2:0] $end
$var wire 1 / s_axil_awready $end
$var wire 2 > s_axil_bresp [1:0] $end
$var wire 1 , s_axil_bvalid $end
$var wire 32 ? s_axil_rdata [31:0] $end
$var wire 2 @ s_axil_rresp [1:0] $end
$var wire 1 ) s_axil_rvalid $end
$var wire 1 ' s_axil_wready $end
$var wire 1 % s_axil_wvalid $end
$var wire 4 A s_axil_wstrb [3:0] $end
$var wire 32 B s_axil_wdata [31:0] $end
$var wire 1 * s_axil_rready $end
$var wire 1 - s_axil_bready $end
$var wire 1 . s_axil_awvalid $end
$var wire 14 C s_axil_awaddr_valid [13:0] $end
$var wire 1 1 s_axil_arvalid $end
$var wire 14 D s_axil_araddr_valid [13:0] $end
$var parameter 32 E ADDR_WIDTH $end
$var parameter 32 F DATA_WIDTH $end
$var parameter 32 G PIPELINE_OUTPUT $end
$var parameter 32 H STRB_WIDTH $end
$var parameter 33 I VALID_ADDR_WIDTH $end
$var parameter 32 J WORD_SIZE $end
$var parameter 32 K WORD_WIDTH $end
$var reg 1 L mem_rd_en $end
$var reg 1 M mem_wr_en $end
$var reg 1 N s_axil_arready_next $end
$var reg 1 O s_axil_arready_reg $end
$var reg 1 P s_axil_awready_next $end
$var reg 1 Q s_axil_awready_reg $end
$var reg 1 R s_axil_bvalid_next $end
$var reg 1 S s_axil_bvalid_reg $end
$var reg 32 T s_axil_rdata_pipe_reg [31:0] $end
$var reg 32 U s_axil_rdata_reg [31:0] $end
$var reg 1 V s_axil_rvalid_next $end
$var reg 1 W s_axil_rvalid_pipe_reg $end
$var reg 1 X s_axil_rvalid_reg $end
$var reg 1 Y s_axil_wready_next $end
$var reg 1 Z s_axil_wready_reg $end
$var integer 32 [ i [31:0] $end
$var integer 32 \ j [31:0] $end
$upscope $end
$scope module uut $end
$var wire 1 7 clk $end
$var wire 1 ] isIimm $end
$var wire 1 ^ isStore $end
$var wire 1 _ isUimm $end
$var wire 1 ` isWB $end
$var wire 3 a m_axil_arprot [2:0] $end
$var wire 1 2 m_axil_arready $end
$var wire 3 b m_axil_awprot [2:0] $end
$var wire 1 / m_axil_awready $end
$var wire 2 c m_axil_bresp [1:0] $end
$var wire 1 , m_axil_bvalid $end
$var wire 32 d m_axil_rdata [31:0] $end
$var wire 2 e m_axil_rresp [1:0] $end
$var wire 1 ) m_axil_rvalid $end
$var wire 1 ' m_axil_wready $end
$var wire 1 9 rstn $end
$var wire 1 f write_enable $end
$var wire 32 g rs2_out [31:0] $end
$var wire 5 h rs2 [4:0] $end
$var wire 32 i rs1_out [31:0] $end
$var wire 5 j rs1 [4:0] $end
$var wire 32 k rd_in_mux [31:0] $end
$var wire 5 l rd [4:0] $end
$var wire 7 m op [6:0] $end
$var wire 1 n mem_ready $end
$var wire 32 o mem_rdata [31:0] $end
$var wire 1 p mem_busy $end
$var wire 1 % m_axil_wvalid $end
$var wire 4 q m_axil_wstrb [3:0] $end
$var wire 32 r m_axil_wdata [31:0] $end
$var wire 1 * m_axil_rready $end
$var wire 1 - m_axil_bready $end
$var wire 1 . m_axil_awvalid $end
$var wire 32 s m_axil_awaddr [31:0] $end
$var wire 1 1 m_axil_arvalid $end
$var wire 32 t m_axil_araddr [31:0] $end
$var wire 1 u isSimm $end
$var wire 1 v isLoad $end
$var wire 1 w isLUI $end
$var wire 1 x isJALR $end
$var wire 1 y isJAL $end
$var wire 1 z isBimm $end
$var wire 1 { isAUIPC $end
$var wire 7 | funct7 [6:0] $end
$var wire 3 } funct3 [2:0] $end
$var wire 32 ~ alu_out [31:0] $end
$var wire 4 !" alu_inst_type [3:0] $end
$var wire 32 "" alu_in2_mux [31:0] $end
$var wire 1 #" alu_branch $end
$var wire 32 $" Uimm [31:0] $end
$var wire 32 %" Simm [31:0] $end
$var wire 32 &" PC_plus_Imm [31:0] $end
$var wire 32 '" PC_plus4 [31:0] $end
$var wire 32 (" PC_mux [31:0] $end
$var wire 32 )" Jimm [31:0] $end
$var wire 32 *" Imm_mux_out [31:0] $end
$var wire 32 +" Iimm [31:0] $end
$var wire 32 ," Bimm [31:0] $end
$var parameter 32 -" ADDR_WIDTH $end
$var parameter 7 ." AUIPC_INST $end
$var parameter 7 /" B_INST $end
$var parameter 32 0" DATA_WIDTH $end
$var parameter 7 1" I_INST $end
$var parameter 7 2" I_LOAD_INST $end
$var parameter 7 3" JALR_INST $end
$var parameter 7 4" JAL_INST $end
$var parameter 7 5" LUI_INST $end
$var parameter 32 6" N_STATES $end
$var parameter 32 7" PC_INIT $end
$var parameter 7 8" R_INST $end
$var parameter 34 9" STATE_DECODE $end
$var parameter 32 :" STATE_DECODE_b $end
$var parameter 35 ;" STATE_EXECUTE $end
$var parameter 32 <" STATE_EXECUTE_b $end
$var parameter 32 =" STATE_FETCH $end
$var parameter 33 >" STATE_FETCH_WAIT $end
$var parameter 32 ?" STATE_FETCH_WAIT_b $end
$var parameter 32 @" STATE_FETCH_b $end
$var parameter 36 A" STATE_MEM $end
$var parameter 32 B" STATE_MEM_b $end
$var parameter 37 C" STATE_WRITE $end
$var parameter 32 D" STATE_WRITE_b $end
$var parameter 32 E" STRB_WIDTH $end
$var parameter 7 F" S_INST $end
$var reg 32 G" ALUOut_r [31:0] $end
$var reg 32 H" IR [31:0] $end
$var reg 32 I" Imm_r [31:0] $end
$var reg 32 J" MDR [31:0] $end
$var reg 32 K" PC [31:0] $end
$var reg 1 L" alu_branch_r $end
$var reg 32 M" alu_in1_r [31:0] $end
$var reg 32 N" alu_in2_r [31:0] $end
$var reg 4 O" alu_inst_type_r [3:0] $end
$var reg 32 P" mem_addr [31:0] $end
$var reg 32 Q" mem_data_out_r [31:0] $end
$var reg 1 R" mem_req $end
$var reg 1 S" mem_wen $end
$var reg 6 T" state [5:0] $end
$scope module alu $end
$var wire 32 U" alu_in1 [31:0] $end
$var wire 32 V" alu_in2 [31:0] $end
$var wire 4 W" alu_inst_type [3:0] $end
$var parameter 5 X" INST_ADD $end
$var parameter 5 Y" INST_AND $end
$var parameter 5 Z" INST_BEQ $end
$var parameter 5 [" INST_BGE $end
$var parameter 5 \" INST_BGEU $end
$var parameter 5 ]" INST_BLT $end
$var parameter 5 ^" INST_BLTU $end
$var parameter 5 _" INST_BNE $end
$var parameter 5 `" INST_OR $end
$var parameter 5 a" INST_SLL $end
$var parameter 5 b" INST_SLT $end
$var parameter 5 c" INST_SLTU $end
$var parameter 5 d" INST_SRA $end
$var parameter 5 e" INST_SRL $end
$var parameter 5 f" INST_SUB $end
$var parameter 5 g" INST_XOR $end
$var reg 1 #" alu_branch $end
$var reg 32 h" alu_out [31:0] $end
$upscope $end
$scope module alu_ctrl $end
$var wire 7 i" alu_op [6:0] $end
$var wire 7 j" alu_funct7 [6:0] $end
$var wire 3 k" alu_funct3 [2:0] $end
$var parameter 7 l" AUIPC_INST $end
$var parameter 7 m" B_INST $end
$var parameter 3 n" F3_ADD_SUB_LB_JALR_SB_BEQ $end
$var parameter 3 o" F3_AND_BGEU $end
$var parameter 3 p" F3_OR_BLTU $end
$var parameter 3 q" F3_SLL_LH_SH_BNE $end
$var parameter 3 r" F3_SLTU $end
$var parameter 3 s" F3_SLT_LW_SW $end
$var parameter 3 t" F3_SRL_SRA_LHU_BGE $end
$var parameter 3 u" F3_XOR_LBU_BLT $end
$var parameter 5 v" INST_ADD $end
$var parameter 5 w" INST_AND $end
$var parameter 5 x" INST_BEQ $end
$var parameter 5 y" INST_BGE $end
$var parameter 5 z" INST_BGEU $end
$var parameter 5 {" INST_BLT $end
$var parameter 5 |" INST_BLTU $end
$var parameter 5 }" INST_BNE $end
$var parameter 5 ~" INST_OR $end
$var parameter 5 !# INST_SLL $end
$var parameter 5 "# INST_SLT $end
$var parameter 5 ## INST_SLTU $end
$var parameter 5 $# INST_SRA $end
$var parameter 5 %# INST_SRL $end
$var parameter 5 &# INST_SUB $end
$var parameter 5 '# INST_XOR $end
$var parameter 7 (# I_INST $end
$var parameter 7 )# I_LOAD_INST $end
$var parameter 7 *# JALR_INST $end
$var parameter 7 +# JAL_INST $end
$var parameter 7 ,# LUI_INST $end
$var parameter 7 -# R_INST $end
$var parameter 7 .# S_INST $end
$var reg 4 /# alu_inst_type [3:0] $end
$upscope $end
$scope module decoder $end
$var wire 32 0# inst [31:0] $end
$var wire 5 1# rs2 [4:0] $end
$var wire 5 2# rs1 [4:0] $end
$var wire 5 3# rd [4:0] $end
$var wire 7 4# op [6:0] $end
$var wire 7 5# funct7 [6:0] $end
$var wire 3 6# funct3 [2:0] $end
$var wire 32 7# Uimm [31:0] $end
$var wire 32 8# Simm [31:0] $end
$var wire 32 9# Jimm [31:0] $end
$var wire 32 :# Iimm [31:0] $end
$var wire 32 ;# Bimm [31:0] $end
$upscope $end
$scope module reg_file $end
$var wire 1 7 clk $end
$var wire 5 <# rd [4:0] $end
$var wire 32 =# rd_in [31:0] $end
$var wire 1 ># reset $end
$var wire 5 ?# rs1 [4:0] $end
$var wire 32 @# rs1_out [31:0] $end
$var wire 5 A# rs2 [4:0] $end
$var wire 1 f write_enable $end
$var wire 32 B# rs2_out [31:0] $end
$var reg 32 C# reg_r10_q [31:0] $end
$var reg 32 D# reg_r11_q [31:0] $end
$var reg 32 E# reg_r12_q [31:0] $end
$var reg 32 F# reg_r13_q [31:0] $end
$var reg 32 G# reg_r14_q [31:0] $end
$var reg 32 H# reg_r15_q [31:0] $end
$var reg 32 I# reg_r16_q [31:0] $end
$var reg 32 J# reg_r17_q [31:0] $end
$var reg 32 K# reg_r18_q [31:0] $end
$var reg 32 L# reg_r19_q [31:0] $end
$var reg 32 M# reg_r1_q [31:0] $end
$var reg 32 N# reg_r20_q [31:0] $end
$var reg 32 O# reg_r21_q [31:0] $end
$var reg 32 P# reg_r22_q [31:0] $end
$var reg 32 Q# reg_r23_q [31:0] $end
$var reg 32 R# reg_r24_q [31:0] $end
$var reg 32 S# reg_r25_q [31:0] $end
$var reg 32 T# reg_r26_q [31:0] $end
$var reg 32 U# reg_r27_q [31:0] $end
$var reg 32 V# reg_r28_q [31:0] $end
$var reg 32 W# reg_r29_q [31:0] $end
$var reg 32 X# reg_r2_q [31:0] $end
$var reg 32 Y# reg_r30_q [31:0] $end
$var reg 32 Z# reg_r31_q [31:0] $end
$var reg 32 [# reg_r3_q [31:0] $end
$var reg 32 \# reg_r4_q [31:0] $end
$var reg 32 ]# reg_r5_q [31:0] $end
$var reg 32 ^# reg_r6_q [31:0] $end
$var reg 32 _# reg_r7_q [31:0] $end
$var reg 32 `# reg_r8_q [31:0] $end
$var reg 32 a# reg_r9_q [31:0] $end
$var reg 32 b# rs1_reg [31:0] $end
$var reg 32 c# rs2_reg [31:0] $end
$upscope $end
$scope module u_axil_master $end
$var wire 1 7 clk $end
$var wire 3 d# m_axil_arprot [2:0] $end
$var wire 1 2 m_axil_arready $end
$var wire 3 e# m_axil_awprot [2:0] $end
$var wire 1 / m_axil_awready $end
$var wire 2 f# m_axil_bresp [1:0] $end
$var wire 1 , m_axil_bvalid $end
$var wire 32 g# m_axil_rdata [31:0] $end
$var wire 2 h# m_axil_rresp [1:0] $end
$var wire 1 ) m_axil_rvalid $end
$var wire 1 ' m_axil_wready $end
$var wire 32 i# mem_addr [31:0] $end
$var wire 1 R" mem_req $end
$var wire 32 j# mem_wdata [31:0] $end
$var wire 1 S" mem_wen $end
$var wire 4 k# mem_wstrb [3:0] $end
$var wire 1 9 rstn $end
$var wire 1 p mem_busy $end
$var parameter 32 l# ADDR_WIDTH $end
$var parameter 32 m# DATA_WIDTH $end
$var parameter 3 n# STATE_IDLE $end
$var parameter 3 o# STATE_READ_ADDR $end
$var parameter 3 p# STATE_READ_DATA $end
$var parameter 3 q# STATE_WRITE_ADDR $end
$var parameter 3 r# STATE_WRITE_RESP $end
$var parameter 32 s# STRB_WIDTH $end
$var reg 32 t# addr_reg [31:0] $end
$var reg 32 u# m_axil_araddr [31:0] $end
$var reg 1 1 m_axil_arvalid $end
$var reg 32 v# m_axil_awaddr [31:0] $end
$var reg 1 . m_axil_awvalid $end
$var reg 1 - m_axil_bready $end
$var reg 1 * m_axil_rready $end
$var reg 32 w# m_axil_wdata [31:0] $end
$var reg 4 x# m_axil_wstrb [3:0] $end
$var reg 1 % m_axil_wvalid $end
$var reg 32 y# mem_rdata [31:0] $end
$var reg 1 n mem_ready $end
$var reg 3 z# state [2:0] $end
$var reg 32 {# wdata_reg [31:0] $end
$var reg 1 |# wen_reg $end
$var reg 4 }# wstrb_reg [3:0] $end
$upscope $end
$upscope $end
$upscope $end
$enddefinitions $end
$comment Show the parameter values. $end
$dumpall
b100 s#
b100 r#
b11 q#
b10 p#
b1 o#
b0 n#
b100000 m#
b100000 l#
b100011 .#
b110011 -#
b110111 ,#
b1101111 +#
b1100111 *#
b11 )#
b10011 (#
b101 '#
b1 &#
b110 %#
b111 $#
b100 ##
b11 "#
b10 !#
b1000 ~"
b1011 }"
b1110 |"
b1100 {"
b1111 z"
b1101 y"
b1010 x"
b1001 w"
b0 v"
b100 u"
b101 t"
b10 s"
b11 r"
b1 q"
b110 p"
b111 o"
b0 n"
b1100011 m"
b10111 l"
b101 g"
b1 f"
b110 e"
b111 d"
b100 c"
b11 b"
b10 a"
b1000 `"
b1011 _"
b1110 ^"
b1100 ]"
b1111 \"
b1101 ["
b1010 Z"
b1001 Y"
b0 X"
b100011 F"
b100 E"
b101 D"
b100000 C"
b100 B"
b10000 A"
b0 @"
b1 ?"
b10 >"
b1 ="
b11 <"
b1000 ;"
b10 :"
b100 9"
b110011 8"
b0 7"
b110 6"
b110111 5"
b1101111 4"
b1100111 3"
b11 2"
b10011 1"
b100000 0"
b1100011 /"
b10111 ."
b100000 -"
b100 K
b1000 J
b1110 I
b100 H
b0 G
b100000 F
b10000 E
b100 6
b100000 5
b100000 4
$end
#0
$dumpvars
bx }#
x|#
bx {#
bx z#
bx y#
bx x#
bx w#
bx v#
bx u#
bx t#
b1111 k#
bx j#
bx i#
b0 h#
b0 g#
b0 f#
b0 e#
b0 d#
bx c#
bx b#
bx a#
bx `#
bx _#
bx ^#
bx ]#
bx \#
bx [#
bx Z#
bx Y#
bx X#
bx W#
bx V#
bx U#
bx T#
bx S#
bx R#
bx Q#
bx P#
bx O#
bx N#
bx M#
bx L#
bx K#
bx J#
bx I#
bx H#
bx G#
bx F#
bx E#
bx D#
bx C#
bx B#
bx A#
bx @#
bx ?#
1>#
bx =#
bx <#
b0xxxxxxxxxxx0 ;#
bx :#
bx0 9#
bx 8#
bx000000000000 7#
bx 6#
bx 5#
bx 4#
bx 3#
bx 2#
bx 1#
bx 0#
bx /#
bx k"
bx j"
bx i"
bx h"
bx W"
bx V"
bx U"
bx T"
xS"
xR"
bx Q"
bx P"
bx O"
bx N"
bx M"
xL"
bx K"
bx J"
bx I"
bx H"
bx G"
b0xxxxxxxxxxx0 ,"
bx +"
bx *"
bx0 )"
bx ("
bx '"
bx &"
bx %"
bx000000000000 $"
x#"
bx ""
bx !"
bx ~
bx }
bx |
x{
xz
xy
xx
xw
xv
xu
bx t
bx s
bx r
bx q
xp
bx o
xn
bx m
bx l
bx k
bx j
bx i
bx h
bx g
xf
b0 e
b0 d
b0 c
b0 b
b0 a
x`
x_
x^
x]
b100000000000000 \
b100000000000000 [
0Z
xY
0X
0W
xV
b0 U
b0 T
0S
xR
0Q
xP
0O
xN
xM
xL
bx D
bx C
bx B
bx A
b0 @
b0 ?
b0 >
b0 =
bx <
b0 ;
bx :
09
bx 8
07
bx 3
02
x1
bx 0
0/
x.
x-
0,
b0 +
x*
0)
bx (
0'
bx &
x%
b0 $
b0 #
b0 "
b0 !
$end
#5000000000000
b0 ""
b0 g
b0 B#
b0 c#
b0 i
b0 @#
b0 b#
b0 k
b0 =#
b0 C
b0 D
1`
b100 ("
0_
0]
b0 *"
b0 <
b0 :
b0 ~
b0 h"
0v
0x
0y
0{
0w
0z
0^
0u
b0 m
b0 i"
b0 4#
b0 j
b0 2#
b0 ?#
b0 h
b0 1#
b0 A#
b0 l
b0 3#
b0 <#
b0 }
b0 k"
b0 6#
b0 |
b0 j"
b0 5#
b0 +"
b0 :#
b0 %"
b0 8#
b0 ,"
b0 ;#
b0 $"
b0 7#
b0 )"
b0 9#
0f
0R
0Y
0P
0M
0V
0N
0L
0|#
b0 }#
b0 {#
b0 t#
0n
b0 o
b0 y#
0-
0%
b0 &
b0 A
b0 q
b0 x#
b0 (
b0 B
b0 r
b0 w#
0.
b0 0
b0 s
b0 v#
0*
01
b0 3
b0 t
b0 u#
0p
b0 z#
b0 Z#
b0 Y#
b0 W#
b0 V#
b0 U#
b0 T#
b0 S#
b0 R#
b0 Q#
b0 P#
b0 O#
b0 N#
b0 L#
b0 K#
b0 J#
b0 I#
b0 H#
b0 G#
b0 F#
b0 E#
b0 D#
b0 C#
b0 a#
b0 `#
b0 _#
b0 ^#
b0 ]#
b0 \#
b0 [#
b0 X#
b0 M#
b0 Q"
b0 j#
b0 &"
b0 I"
b0 O"
b0 W"
b0 N"
b0 V"
b0 M"
b0 U"
0L"
b0 G"
b0 J"
b0 H"
b0 0#
b0 P"
b0 i#
0S"
0R"
b100 '"
b0 K"
b1 T"
0,
0S
0'
0Z
0/
0Q
0)
0X
02
0O
b100 [
17
#10000000000000
07
#15000000000000
b100 [
17
#20000000000000
0>#
07
19
#25000000000000
b10 T"
1R"
b1 8
b100 [
17
#30000000000000
07
#35000000000000
1L
1V
1N
b10 8
0R"
1p
b1 z#
11
b1111 }#
b100 [
17
#40000000000000
07
#45000000000000
0N
0L
b1100000000000100010011 +
b1100000000000100010011 ?
b1100000000000100010011 d
b1100000000000100010011 g#
b1100000000000100010011 U
1)
1X
12
1O
b100 [
17
#50000000000000
07
#55000000000000
0V
1W
b1100000000000100010011 T
02
0O
b10 z#
1*
01
b100 [
17
#60000000000000
07
#65000000000000
0p
b0 z#
0*
1n
b1100000000000100010011 o
b1100000000000100010011 y#
0)
0X
b100 [
17
#70000000000000
07
#75000000000000
b11 *"
b11 ""
1]
b0 !"
b0 /#
b10011 m
b10011 i"
b10011 4#
b11 h
b11 1#
b11 A#
b10 l
b10 3#
b10 <#
b11 +"
b11 :#
b10 %"
b10 8#
b10 ,"
b10 ;#
b1100000000000000000000 $"
b1100000000000000000000 7#
b100000000010 )"
b100000000010 9#
b100 T"
b1100000000000100010011 H"
b1100000000000100010011 0#
0n
b100 [
17
#80000000000000
07
#85000000000000
b11 ~
b11 h"
b1000 T"
b11 &"
b11 I"
b11 N"
b11 V"
b100 8
b100 [
17
#90000000000000
07
#95000000000000
b11 k
b11 =#
b1000 ("
1f
b1000 8
b100000 T"
xL"
b11 G"
b1000 '"
b111 &"
b100 K"
b100 [
17
#100000000000000
07
#105000000000000
0f
b11 X#
b1 T"
b100000 8
b100 [
17
#110000000000000
07
#115000000000000
b1 8
b10 T"
1R"
b100 P"
b100 i#
b100 [
17
#120000000000000
07
#125000000000000
b1 D
1L
1V
1N
b100 :
1p
b1 z#
11
b100 3
b100 t
b100 u#
b100 t#
0R"
b10 8
b100 [
17
#130000000000000
07
#135000000000000
0N
0L
b10100000000000110010011 +
b10100000000000110010011 ?
b10100000000000110010011 d
b10100000000000110010011 g#
b10100000000000110010011 U
1)
1X
12
1O
b100 [
17
#140000000000000
07
#145000000000000
0V
b10 z#
1*
01
02
0O
b100 [
17
#150000000000000
07
#155000000000000
b10100000000000110010011 T
0)
0X
0p
b0 z#
0*
1n
b10100000000000110010011 o
b10100000000000110010011 y#
b100 [
17
#160000000000000
07
#165000000000000
b101 ""
b101 *"
b101 h
b101 1#
b101 A#
b11 l
b11 3#
b11 <#
b101 +"
b101 :#
b11 %"
b11 8#
b100000000010 ,"
b100000000010 ;#
b10100000000000000000000 $"
b10100000000000000000000 7#
b100000000100 )"
b100000000100 9#
0n
b100 T"
b10100000000000110010011 H"
b10100000000000110010011 0#
b100 [
17
#170000000000000
07
#175000000000000
b101 ~
b101 h"
b100 8
b1000 T"
b1001 &"
b101 I"
b101 N"
b101 V"
b100 [
17
#180000000000000
07
#185000000000000
b101 k
b101 =#
b1100 ("
1f
b100000 T"
b101 G"
b1100 '"
b1101 &"
b1000 K"
b1000 8
b100 [
17
#190000000000000
07
#195000000000000
0f
b100000 8
b1 T"
b101 [#
b100 [
17
#200000000000000
07
#205000000000000
b10 T"
1R"
b1000 P"
b1000 i#
b1 8
b100 [
17
#210000000000000
07
#215000000000000
b10 D
1L
1V
1N
b1000 :
b10 8
0R"
1p
b1 z#
11
b1000 3
b1000 t
b1000 u#
b1000 t#
b100 [
17
#220000000000000
07
#225000000000000
0N
0L
b1100010000001000110011 +
b1100010000001000110011 ?
b1100010000001000110011 d
b1100010000001000110011 g#
b1100010000001000110011 U
1)
1X
12
1O
b100 [
17
#230000000000000
07
#235000000000000
0V
02
0O
b10 z#
1*
01
b100 [
17
#240000000000000
07
#245000000000000
0p
b0 z#
0*
1n
b1100010000001000110011 o
b1100010000001000110011 y#
b1100010000001000110011 T
0)
0X
b100 [
17
#250000000000000
07
#255000000000000
b101 g
b101 B#
b101 c#
b11 i
b11 @#
b11 b#
0]
b101 ""
b0 *"
b110011 m
b110011 i"
b110011 4#
b10 j
b10 2#
b10 ?#
b11 h
b11 1#
b11 A#
b100 l
b100 3#
b100 <#
b11 +"
b11 :#
b100 %"
b100 8#
b100 ,"
b100 ;#
b1100010000000000000000 $"
b1100010000000000000000 7#
b10000100000000010 )"
b10000100000000010 9#
b100 T"
b1100010000001000110011 H"
b1100010000001000110011 0#
0n
b100 [
17
#260000000000000
07
#265000000000000
b1000 ~
b1000 h"
b1000 T"
b101 Q"
b101 j#
b1000 &"
b0 I"
b11 M"
b11 U"
b100 8
b100 [
17
#270000000000000
07
#275000000000000
b1000 k
b1000 =#
b10000 ("
1f
b1000 8
b100000 T"
b1000 G"
b10000 '"
b1100 &"
b1100 K"
b100 [
17
#280000000000000
07
#285000000000000
0f
b1000 \#
b1 T"
b100000 8
b100 [
17
#290000000000000
07
#295000000000000
b1 8
b10 T"
1R"
b1100 P"
b1100 i#
b100 [
17
#300000000000000
07
#305000000000000
b11 D
1L
1V
1N
b1100 :
1p
b1 z#
11
b1100 3
b1100 t
b1100 u#
b101 {#
b1100 t#
0R"
b10 8
b100 [
17
#310000000000000
07
#315000000000000
0N
0L
b10000010000000010000000100011 +
b10000010000000010000000100011 ?
b10000010000000010000000100011 d
b10000010000000010000000100011 g#
b10000010000000010000000100011 U
1)
1X
12
1O
b100 [
17
#320000000000000
07
#325000000000000
0V
b10 z#
1*
01
02
0O
b100 [
17
#330000000000000
07
#335000000000000
b10000010000000010000000100011 T
0)
0X
0p
b0 z#
0*
1n
b10000010000000010000000100011 o
b10000010000000010000000100011 y#
b100 [
17
#340000000000000
07
#345000000000000
b1000 g
b1000 B#
b1000 c#
b0 i
b0 @#
b0 b#
b100000000 ""
b100000000 *"
0`
1^
1u
b100011 m
b100011 i"
b100011 4#
b0 j
b0 2#
b0 ?#
b100 h
b100 1#
b100 A#
b0 l
b0 3#
b0 <#
b10 }
b10 k"
b10 6#
b1000 |
b1000 j"
b1000 5#
b100000100 +"
b100000100 :#
b100000000 %"
b100000000 8#
b100000000 ,"
b100000000 ;#
b10000010000000010000000000000 $"
b10000010000000010000000000000 7#
b10000100000100 )"
b10000100000100 9#
0n
b100 T"
b10000010000000010000000100011 H"
b10000010000000010000000100011 0#
b100 [
17
#350000000000000
07
#355000000000000
b100000000 ~
b100000000 h"
b100 8
b1000 T"
b1000 Q"
b1000 j#
b100001100 &"
b100000000 I"
b100000000 N"
b100000000 V"
b0 M"
b0 U"
b100 [
17
#360000000000000
07
#365000000000000
b100000000 k
b100000000 =#
b10100 ("
b10000 T"
1R"
1S"
b100000000 P"
b100000000 i#
b100000000 G"
b10100 '"
b100010000 &"
b10000 K"
b1000 8
b100 [
17
#370000000000000
07
#375000000000000
b1000000 C
1M
1R
1Y
1P
b100000000 <
b10000 8
0R"
1p
b11 z#
1%
b1111 &
b1111 A
b1111 q
b1111 x#
b1000 (
b1000 B
b1000 r
b1000 w#
1.
b100000000 0
b100000000 s
b100000000 v#
1|#
b1000 {#
b100000000 t#
b100 [
17
#380000000000000
07
#385000000000000
0Y
0P
0M
1,
1S
1'
1Z
1/
1Q
b100 [
17
#390000000000000
07
#395000000000000
0R
0'
0Z
0/
0Q
b100 z#
1-
0%
0.
b100 [
17
#400000000000000
07
#405000000000000
0p
b0 z#
0-
1n
0,
0S
b100 [
17
#410000000000000
07
#415000000000000
b1 T"
0n
b100 [
17
#420000000000000
07
#425000000000000
b10 T"
1R"
0S"
b10000 P"
b10000 i#
b1 8
b100 [
17
#430000000000000
07
#435000000000000
b100 D
1L
1V
1N
b10000 :
b10 8
0R"
1p
b1 z#
11
b10000 3
b10000 t
b10000 u#
0|#
b10000 t#
b100 [
17
#440000000000000
07
#445000000000000
0N
0L
b10000000000000010001010000011 +
b10000000000000010001010000011 ?
b10000000000000010001010000011 d
b10000000000000010001010000011 g#
b10000000000000010001010000011 U
1)
1X
12
1O
b100 [
17
#450000000000000
07
#455000000000000
0V
02
0O
b10 z#
1*
01
b100 [
17
#460000000000000
07
#465000000000000
0p
b0 z#
0*
1n
b10000000000000010001010000011 o
b10000000000000010001010000011 y#
b10000000000000010001010000011 T
0)
0X
b100 [
17
#470000000000000
07
#475000000000000
b0 g
b0 B#
b0 c#
1`
1]
b100000000 ""
b100000000 *"
b0 k
b0 =#
1v
0^
0u
b11 m
b11 i"
b11 4#
b0 h
b0 1#
b0 A#
b101 l
b101 3#
b101 <#
b100000000 +"
b100000000 :#
b100000101 %"
b100000101 8#
b100100000100 ,"
b100100000100 ;#
b10000000000000010000000000000 $"
b10000000000000010000000000000 7#
b10000100000000 )"
b10000100000000 9#
b100 T"
b10000000000000010001010000011 H"
b10000000000000010001010000011 0#
0n
b100 [
17
#480000000000000
07
#485000000000000
b1000 T"
b0 Q"
b0 j#
b100 8
b100 [
17
#490000000000000
07
#495000000000000
b11000 ("
b1000 8
b10000 T"
1R"
b100000000 P"
b100000000 i#
b11000 '"
b100010100 &"
b10100 K"
b100 [
17
#500000000000000
07
#505000000000000
b1000000 D
1L
1V
1N
b100000000 :
1p
b1 z#
11
b100000000 3
b100000000 t
b100000000 u#
b0 {#
b100000000 t#
0R"
b10000 8
b100 [
17
#510000000000000
07
#515000000000000
0N
0L
b1000 +
b1000 ?
b1000 d
b1000 g#
b1000 U
1)
1X
12
1O
b100 [
17
#520000000000000
07
#525000000000000
0V
b10 z#
1*
01
02
0O
b100 [
17
#530000000000000
07
#535000000000000
b1000 T
0)
0X
0p
b0 z#
0*
1n
b1000 o
b1000 y#
b100 [
17
#540000000000000
07
#545000000000000
1f
b1000 k
b1000 =#
0n
b100000 T"
b1000 J"
b100 [
17
#550000000000000
07
#555000000000000
0f
b100000 8
b1 T"
b1000 ]#
b100 [
17
#560000000000000
07
#565000000000000
b10 T"
1R"
b10100 P"
b10100 i#
b1 8
b100 [
17
#570000000000000
07
#575000000000000
b101 D
1L
1V
1N
b10100 :
b10 8
0R"
1p
b1 z#
11
b10100 3
b10100 t
b10100 u#
b10100 t#
b100 [
17
#580000000000000
07
#585000000000000
0N
0L
b1000000001000101000001100110011 +
b1000000001000101000001100110011 ?
b1000000001000101000001100110011 d
b1000000001000101000001100110011 g#
b1000000001000101000001100110011 U
1)
1X
12
1O
b100 [
17
#590000000000000
07
#595000000000000
0V
02
0O
b10 z#
1*
01
b100 [
17
#600000000000000
07
#605000000000000
0p
b0 z#
0*
1n
b1000000001000101000001100110011 o
b1000000001000101000001100110011 y#
b1000000001000101000001100110011 T
0)
0X
b100 [
17
#610000000000000
07
